<?xml version="1.0" encoding="utf-8"?>
<!-- Generator: Adobe Illustrator 17.0.0, SVG Export Plug-In . SVG Version: 6.00 Build 0)  -->
<!DOCTYPE svg PUBLIC "-//W3C//DTD SVG 1.1//EN" "http://www.w3.org/Graphics/SVG/1.1/DTD/svg11.dtd">
<svg version="1.1" id="Layer_2" xmlns="http://www.w3.org/2000/svg" xmlns:xlink="http://www.w3.org/1999/xlink" x="0px" y="0px"
	 width="512px" height="512px" viewBox="0 0 512 512" enable-background="new 0 0 512 512" xml:space="preserve">
<g>
	<path fill="#440A6D" d="M480.174,232.162c0,19.313-19.203,35.842-23.963,53.654c-4.926,18.428,3.295,42.32-6.039,58.456
		c-9.472,16.366-34.363,21.135-47.644,34.417c-13.285,13.285-18.053,38.174-34.419,47.646c-16.134,9.332-40.025,1.113-58.455,6.039
		c-17.811,4.761-34.341,23.966-53.652,23.966s-35.844-19.205-53.655-23.966c-18.427-4.926-42.319,3.293-58.455-6.042
		c-16.369-9.47-21.134-34.358-34.419-47.643c-13.283-13.282-38.174-18.052-47.644-34.419c-9.334-16.134-1.113-40.025-6.037-58.454
		c-4.761-17.812-23.966-34.341-23.966-53.654s19.205-35.842,23.966-53.653c4.924-18.428-3.297-42.32,6.039-58.456
		c9.469-16.368,34.358-21.135,47.641-34.419c13.285-13.282,18.052-38.172,34.419-47.641c16.136-9.336,40.027-1.114,58.455-6.04
		c17.811-4.76,34.343-23.964,53.655-23.964s35.842,19.205,53.652,23.964c18.429,4.926,42.321-3.295,58.455,6.04
		c16.369,9.471,21.136,34.359,34.419,47.641c13.281,13.284,38.172,18.053,47.644,34.422c9.334,16.134,1.113,40.025,6.039,58.453
		C460.971,196.321,480.174,212.85,480.174,232.162z"/>
	<circle fill="#FFFFFF" cx="256.001" cy="232.162" r="179.783"/>
	<path fill="#E21079" d="M423.912,232.163c0,92.735-75.174,167.912-167.909,167.912c-92.738,0-167.916-75.178-167.916-167.912
		c0-92.736,75.177-167.914,167.916-167.914C348.738,64.249,423.912,139.426,423.912,232.163z"/>
	<g>
		<path fill="#FFFFFF" d="M209.879,117.705l-15.706-6.913v-1.945l15.706-7.845v3.135l-11.783,5.53l11.783,4.871V117.705z"/>
		<path fill="#FFFFFF" d="M226.067,116.194c0,1.736-0.633,3.068-1.897,3.995c-1.265,0.927-3.076,1.391-5.433,1.391
			c-2.369,0-4.271-0.359-5.707-1.077v-3.263c2.09,0.965,4.035,1.447,5.836,1.447c2.325,0,3.488-0.702,3.488-2.106
			c0-0.45-0.129-0.825-0.386-1.125c-0.257-0.3-0.68-0.611-1.27-0.933c-0.589-0.321-1.409-0.685-2.459-1.093
			c-2.047-0.793-3.432-1.586-4.155-2.379c-0.723-0.793-1.085-1.822-1.085-3.087c0-1.522,0.613-2.703,1.84-3.544
			c1.227-0.841,2.897-1.262,5.008-1.262c2.09,0,4.067,0.423,5.931,1.27l-1.221,2.845c-1.919-0.793-3.531-1.189-4.839-1.189
			c-1.993,0-2.99,0.568-2.99,1.704c0,0.557,0.26,1.029,0.78,1.415c0.52,0.385,1.653,0.916,3.4,1.591
			c1.468,0.568,2.534,1.088,3.199,1.559c0.665,0.472,1.158,1.016,1.479,1.632C225.906,114.599,226.067,115.336,226.067,116.194z"/>
		<path fill="#FFFFFF" d="M237.32,121.579c-2.691,0-4.734-0.785-6.133-2.355c-1.399-1.57-2.098-3.824-2.098-6.76
			c0-2.99,0.732-5.289,2.195-6.896c1.462-1.608,3.576-2.411,6.342-2.411c1.875,0,3.563,0.348,5.064,1.044l-1.141,3.038
			c-1.597-0.622-2.915-0.933-3.955-0.933c-3.076,0-4.614,2.042-4.614,6.125c0,1.993,0.384,3.491,1.149,4.493
			c0.766,1.002,1.889,1.503,3.368,1.503c1.682,0,3.274-0.418,4.774-1.254v3.295c-0.675,0.397-1.396,0.681-2.162,0.852
			C239.343,121.493,238.414,121.579,237.32,121.579z"/>
		<path fill="#FFFFFF" d="M255.469,103.157c0.761,0,1.388,0.054,1.881,0.161l-0.37,3.521c-0.536-0.129-1.093-0.193-1.672-0.193
			c-1.511,0-2.735,0.493-3.673,1.479c-0.938,0.986-1.407,2.267-1.407,3.842v9.292h-3.778v-17.78h2.958l0.498,3.135h0.193
			c0.589-1.061,1.358-1.902,2.307-2.524C253.355,103.467,254.376,103.157,255.469,103.157z"/>
		<path fill="#FFFFFF" d="M260.421,98.768c0-0.675,0.185-1.195,0.555-1.559s0.898-0.547,1.584-0.547
			c0.664,0,1.181,0.182,1.551,0.547s0.555,0.884,0.555,1.559c0,0.643-0.185,1.149-0.555,1.519s-0.887,0.555-1.551,0.555
			c-0.686,0-1.214-0.185-1.584-0.555S260.421,99.411,260.421,98.768z M264.424,121.257h-3.778v-17.78h3.778V121.257z"/>
		<path fill="#FFFFFF" d="M278.843,121.579c-2.25,0-3.997-0.809-5.24-2.428h-0.225c0.15,1.5,0.225,2.411,0.225,2.733v7.282h-3.779
			v-25.689h3.055c0.085,0.332,0.262,1.126,0.53,2.379h0.194c1.178-1.8,2.947-2.701,5.305-2.701c2.218,0,3.947,0.803,5.184,2.411
			c1.238,1.607,1.857,3.864,1.857,6.768s-0.63,5.171-1.888,6.8C282.801,120.764,281.062,121.579,278.843,121.579z M277.927,106.242
			c-1.5,0-2.596,0.44-3.287,1.319c-0.692,0.879-1.037,2.283-1.037,4.212v0.563c0,2.165,0.342,3.732,1.028,4.702
			c0.686,0.97,1.805,1.455,3.36,1.455c1.308,0,2.315-0.536,3.022-1.608c0.707-1.071,1.062-2.599,1.062-4.581
			c0-1.993-0.352-3.501-1.053-4.525C280.32,106.755,279.288,106.242,277.927,106.242z"/>
		<path fill="#FFFFFF" d="M296.961,118.524c0.921,0,1.843-0.144,2.765-0.434v2.845c-0.419,0.182-0.957,0.335-1.615,0.459
			c-0.66,0.123-1.343,0.185-2.05,0.185c-3.579,0-5.37-1.887-5.37-5.659v-9.581h-2.426v-1.672l2.604-1.383l1.286-3.761h2.331v3.954
			h5.064v2.862h-5.064v9.516c0,0.911,0.227,1.584,0.683,2.018C295.623,118.308,296.222,118.524,296.961,118.524z"/>
		<path fill="#FFFFFF" d="M302.121,114.538l11.784-4.871l-11.784-5.53v-3.135l15.706,7.845v1.945l-15.706,6.913V114.538z"/>
	</g>
	<path fill="#B50F6A" d="M88.087,232.164c0,92.734,75.178,167.912,167.916,167.912c92.734,0,167.909-75.177,167.909-167.912H88.087z
		"/>
	<path fill="#75074E" d="M256.002,402.575c-93.967,0-170.416-76.446-170.416-170.413S162.035,61.749,256.002,61.749
		c93.964,0,170.409,76.447,170.409,170.414S349.966,402.575,256.002,402.575z M256.002,66.749
		c-91.21,0-165.416,74.204-165.416,165.414c0,91.208,74.205,165.413,165.416,165.413c91.207,0,165.409-74.204,165.409-165.413
		C421.411,140.953,347.209,66.749,256.002,66.749z"/>
	<g>
		<g>
			<g>
				<path fill="#440A6D" d="M184.887,468.859c-1.526-9.282-9.981-21.255-29.809-21.68
					C155.216,456.685,164.31,467.962,184.887,468.859z"/>
				<path fill="#440A6D" d="M51.151,422.38c-1.055-14.08-21.488-23.393-26.426-23.163C23.571,397.775,25.853,422.441,51.151,422.38z
					"/>
				<path fill="#440A6D" d="M149.581,460.574c-0.48-8.721-7.195-21.987-26.002-24.641
					C122.705,444.321,129.373,457.303,149.581,460.574z"/>
				<path fill="#440A6D" d="M117.968,451.625c0.311-8.69-5.864-20.976-21.374-24.771C94.92,434.952,100.559,447.077,117.968,451.625
					z"/>
				<path fill="#440A6D" d="M92.127,441.023c0.617-7.39-3.369-19.486-18.898-24.143C71.035,424.718,76.251,436.38,92.127,441.023z"
					/>
				<path fill="#440A6D" d="M67.931,430.393c1.194-7.187-2.145-17.432-14.651-22.365C50.816,414.355,53.828,424.945,67.931,430.393z
					"/>
				<path fill="#440A6D" d="M184.24,472.4c-20.215-6.77-33.097,0.386-37.135,7.56C163.43,488.272,178.539,482.55,184.24,472.4z"/>
				<path fill="#440A6D" d="M112.023,470.252c19.039,9.419,32.518,0.214,36.9-7.385
					C129.822,456.675,116.481,462.768,112.023,470.252z"/>
				<path fill="#440A6D" d="M117.071,454.586c-17.524-7.479-29.429-2.523-33.794,3.398
					C97.819,466.883,111.073,463.136,117.071,454.586z"/>
				<path fill="#440A6D" d="M90.412,443.446c-16.168-6.713-28.139-2.489-32.512,3.097C71.639,455.18,84.606,451.48,90.412,443.446z"
					/>
				<path fill="#440A6D" d="M66.214,433.062c-13.504-8.492-23.888-6.21-28.437-2.034C48.407,440.672,60.21,439.252,66.214,433.062z"
					/>
				<path fill="#440A6D" d="M214.617,474.218c-1.879-10.661-10.635-22.058-28.817-23.576c-0.078,7.217,5.945,19.782,25.079,23.433
					l0.708,0.107c-19.852-2.093-30.74,9.81-33.019,15.579c17.455,5.467,31.073-1.372,35.675-12.433
					c14.886-0.001,55.458,4.582,70.296,26.684l3.406-3.97C287.945,500.043,274.802,474.878,214.617,474.218z"/>
			</g>
			<g>
				<path fill="#440A6D" d="M327.112,468.859c1.527-9.282,9.981-21.255,29.81-21.68C356.783,456.685,347.69,467.962,327.112,468.859
					z"/>
				<path fill="#440A6D" d="M460.848,422.38c1.055-14.08,21.488-23.393,26.427-23.163
					C488.429,397.775,486.147,422.441,460.848,422.38z"/>
				<path fill="#440A6D" d="M362.419,460.574c0.479-8.721,7.195-21.987,26.002-24.641
					C389.295,444.321,382.628,457.303,362.419,460.574z"/>
				<path fill="#440A6D" d="M394.032,451.625c-0.311-8.69,5.864-20.976,21.374-24.771
					C417.079,434.952,411.44,447.077,394.032,451.625z"/>
				<path fill="#440A6D" d="M419.872,441.023c-0.617-7.39,3.369-19.486,18.898-24.143
					C440.965,424.718,435.749,436.38,419.872,441.023z"/>
				<path fill="#440A6D" d="M444.069,430.393c-1.194-7.187,2.145-17.432,14.651-22.365
					C461.184,414.355,458.172,424.945,444.069,430.393z"/>
				<path fill="#440A6D" d="M327.761,472.4c20.214-6.77,33.096,0.386,37.134,7.56C348.569,488.272,333.461,482.55,327.761,472.4z"/>
				<path fill="#440A6D" d="M399.977,470.252c-19.039,9.419-32.519,0.214-36.901-7.385
					C382.177,456.675,395.519,462.768,399.977,470.252z"/>
				<path fill="#440A6D" d="M394.929,454.586c17.524-7.479,29.43-2.523,33.794,3.398
					C414.181,466.883,400.927,463.136,394.929,454.586z"/>
				<path fill="#440A6D" d="M421.588,443.446c16.168-6.713,28.139-2.489,32.512,3.097
					C440.361,455.18,427.394,451.48,421.588,443.446z"/>
				<path fill="#440A6D" d="M445.787,433.062c13.503-8.492,23.887-6.21,28.436-2.034
					C463.594,440.672,451.79,439.252,445.787,433.062z"/>
				<path fill="#440A6D" d="M297.383,474.218c1.879-10.661,10.635-22.058,28.817-23.576c0.078,7.217-5.945,19.782-25.079,23.433
					l-0.708,0.107c19.851-2.093,30.74,9.81,33.019,15.579c-17.455,5.467-31.073-1.372-35.675-12.433
					c-14.887-0.001-55.458,4.582-70.296,26.684l-3.406-3.97C224.055,500.043,237.198,474.878,297.383,474.218z"/>
			</g>
		</g>
	</g>
	<path opacity="0.2" fill="#111111" d="M369.265,166.1c-2.452-5.923-6.027-9.945-9.678-12.675c1.328-0.602,2.423-1.677,3.037-3.064
		c1.123-2.548,0.368-5.516-1.838-7.217c-6.025-4.646-11.269-5.34-13.858-5.34c-1.068,0-1.904,0.108-2.478,0.217
		c-0.193,0.025-0.387,0.055-0.581,0.089c-0.685-4.118-2.179-7.184-2.446-7.709c-1.036-2.031-3.101-3.292-5.388-3.292l-0.116,0.001
		c-2.304,0.048-4.41,1.434-5.365,3.528c-1.734,3.796-5.608,7.309-22.071,7.309c-8.048,0-18.104-0.778-29.825-1.685
		c-9.118-0.705-19.454-1.503-30.876-2.092c-2.475-0.128-4.938-0.192-7.324-0.192c-25.615,0-41.706,7.464-50.695,13.726
		c-2.639,1.838-4.849,3.682-6.68,5.417c-0.493-1.69-1.711-3.144-3.399-3.874c-0.761-0.329-1.566-0.496-2.394-0.496
		c-1.94,0-3.774,0.941-4.907,2.52c-3.857,5.38-4.082,12.652-3.336,18.592c-8.883,1.172-14.53,7.636-15.203,8.441
		c-1.8,2.16-1.879,5.239-0.189,7.492c0.162,0.215,0.337,0.418,0.525,0.608c-7.201,8.019-11.237,18.911-11.824,32.18
		c-0.661,14.937,3.28,27.767,3.45,28.31c0.792,2.533,3.111,4.235,5.77,4.235l0.169-0.002c0.119-0.004,0.237-0.011,0.354-0.021
		c0.291,3.601,0.943,7.221,1.957,10.848c2.315,8.289,6.514,16.623,12.489,24.797c-2.207,3.61-3.052,8.005-2.398,12.762
		c0.574,4.817,4.316,14.411,14.471,16.681c3.018,0.674,5.387,0.987,7.454,0.987c1.676,0,3.13-0.211,4.408-0.577
		c1.561,9.624,4.981,22.035,12.463,31.639c6.146,7.89,15.179,13.931,26.85,17.954c9.186,3.167,19.783,4.911,29.841,4.911
		c1.758,0,3.488-0.055,5.141-0.162c16.839-1.095,46.77-6.075,58.023-27.133c5.521-10.332,7.97-19.082,9.257-26.946
		c0.995,0.201,2.092,0.314,3.308,0.314c2.066,0,4.436-0.313,7.455-0.987c10.133-2.266,13.885-11.847,14.466-16.655
		c1.346-9.771-3.606-15.691-7.798-18.384c1.442-8.454,4.224-23.13,7.797-34.208c5.545-17.188,9.433-38.044,9.604-38.976
		c0.03-0.176,0.054-0.357,0.07-0.55c1.207-14.64-1.696-25.699-5.041-33.237c0.568,0.174,1.164,0.264,1.772,0.264
		c1.342,0,2.662-0.456,3.718-1.281C369.531,171.503,370.296,168.6,369.265,166.1z"/>
	<g>
		<path fill="#FAD3A3" d="M194.989,300.684c0,0-0.484,27.243,12.55,43.976c13.034,16.733,39.827,21.573,56.854,20.467
			s43.579-5.946,53.259-24.062s9.265-31.254,10.51-42.732c1.245-11.478,7.883-42.269,7.883-42.269l-1.867-55.917l-29.248-18.877
			l-39.414,5.808l-54.762-1.245c0,0-17.01,14.313-17.839,14.313s-5.808,74.262-5.808,74.262L194.989,300.684z"/>
		<path fill="#FBB478" d="M199.769,303.065c0,0-4.366-50.23,6.421-69.314s6.235-20.419,27.699-17.988
			c21.463,2.431,58.784,5.611,66.261-9.255c7.476-14.866-11.32-19.222-11.32-19.222l-101.723,20.536l-6.845,49.712L199.769,303.065z
			"/>
		<path fill="#FBB478" d="M192.003,277.105l-4.886-2.856c-0.007,0.103-0.011,0.159-0.011,0.159l7.883,26.275
			c0,0-0.484,27.243,12.55,43.976c10.029,12.876,28.203,18.705,43.808,20.206C199.382,347.833,192.003,277.105,192.003,277.105z"/>
		<path fill="#FBB478" d="M334.264,202.744l-0.614-2.938l-4.719-3.046l-28.903-7.4l-17.727,15.074c0,0,18.605,7.053,25.595,18.807
			c6.99,11.755,16.532,15.072,13.213,43.284s1.659,41.974-2.074,52.31c-3.211,8.888-6.231,26.7-33.479,43.124
			c12.996-3.24,25.948-9.39,32.096-20.895c9.68-18.116,9.265-31.254,10.51-42.732c1.245-11.478,7.883-42.269,7.883-42.269
			L334.264,202.744z"/>
		<path fill="#AF5228" d="M259.63,366.106C259.629,366.106,259.629,366.106,259.63,366.106c-9.519,0-19.538-1.647-28.211-4.638
			c-10.74-3.703-18.995-9.187-24.535-16.299c-12.739-16.354-12.752-42.057-12.727-44.37l-7.889-26.296l0.01-0.15
			c0.013-0.186,1.26-18.78,2.593-37.136c0.783-10.782,1.442-19.374,1.958-25.537c0.307-3.663,0.567-6.5,0.772-8.431
			c0.33-3.106,0.407-3.839,1.141-3.924c1.398-0.755,11.391-9.007,17.477-14.127l0.24-0.202l55.005,1.25l39.653-5.843l29.876,19.281
			l1.885,56.453l-0.021,0.1c-0.066,0.307-6.643,30.88-7.869,42.184c-0.194,1.789-0.346,3.597-0.506,5.512
			c-0.869,10.356-1.853,22.094-10.097,37.521c-10.112,18.924-38.134,23.473-53.937,24.5
			C262.898,366.055,261.278,366.106,259.63,366.106z M187.944,274.314l7.876,26.255l-0.002,0.129
			c-0.005,0.269-0.324,27.149,12.375,43.452c11.669,14.982,35.001,20.297,51.436,20.297c0,0,0.001,0,0.001,0
			c1.612,0,3.197-0.05,4.709-0.148c15.459-1.004,42.847-5.41,52.581-23.625c8.082-15.126,9.051-26.682,9.907-36.878
			c0.161-1.925,0.314-3.743,0.51-5.552c1.2-11.063,7.456-40.303,7.875-42.254l-1.849-55.38l-28.621-18.472l-39.175,5.773
			l-54.519-1.239c-12.461,10.481-16.2,13.283-17.453,14.033C192.816,204.519,189.818,246.374,187.944,274.314z M193.408,200.81
			c-0.221,0.12-0.336,0.153-0.414,0.163C193.159,200.957,193.299,200.893,193.408,200.81z"/>
		<path fill="#3E3E3E" d="M194.989,306.768c0,0-48.955-34.296-34.296-75.783c0,0-7.468,7.468-9.127,14.106
			c0,0-15.212-48.678,20.19-63.89c0,0-6.638-1.936-13.276,0.968c0,0,7.606-9.127,18.116-5.67c0,0-4.564-14.382,0.691-21.712
			c0,0-1.245,6.361,3.596,10.51c0,0,14.313-27.796,66.587-25.1s80.9,9.749,88.575-7.053c0,0,5.393,10.579-1.037,17.528
			c0,0,5.082-6.119,10.424-6.69c0,0,4.875-1.296,11.668,3.941c0,0-7.571-1.348-12.757,5.756c0,0,13.483,0.57,19.343,14.728
			c0,0-5.393-3.993-13.587-1.919c0,0,13.051,13.604,10.838,40.433c0,0-3.872,21.02-9.404,38.168
			c-5.532,17.148-9.127,42.04-9.127,42.04l-15.212,17.978c0,0,2.766-71.911,1.245-78.41s-4.01-8.297-6.5-8.712
			c0,0-1.245-2.904,5.67-2.628c0,0-16.042-10.233-30.009-6.915c0,0,1.798-5.808,8.574-9.542c0,0-6.914-0.553-19.658,7.044
			c0,0-18.648,5.817-40.083,2.36c-21.435-3.457-31.807-0.691-34.987-4.287c0,0-4.01,2.766-5.117,4.702s-0.138,6.223,3.319,8.712
			c0,0-4.978,1.245-10.095-2.766c0,0-0.277,9.265,7.606,12.17c0,0-4.84,2.351-8.989-0.277c0,0-4.564,0.138-4.978,7.468
			c-0.415,7.329,1.383,59.257,2.143,64.028C196.095,302.827,195.818,306.146,194.989,306.768z"/>
		<path fill="#0D0D0D" d="M194.989,307.805c-0.208,0-0.416-0.062-0.595-0.188c-0.124-0.087-12.492-8.827-22.877-22.558
			c-6.121-8.093-10.376-16.32-12.648-24.452c-2.407-8.616-2.582-17.136-0.529-25.392c-2.185,2.705-4.88,6.575-5.767,10.127
			c-0.113,0.451-0.511,0.772-0.976,0.785c-0.471,0.01-0.881-0.284-1.02-0.727c-0.157-0.504-3.85-12.505-3.227-26.596
			c0.775-17.523,8.012-30.284,20.986-37.121c-0.561-0.048-1.18-0.078-1.843-0.078c-2.745,0-5.301,0.509-7.596,1.513
			c-0.441,0.193-0.956,0.057-1.245-0.327c-0.289-0.384-0.275-0.917,0.033-1.287c0.232-0.279,5.783-6.825,14.132-6.825
			c1.097,0,2.2,0.116,3.294,0.346c-1.062-4.19-3.083-14.681,1.335-20.843c0.284-0.396,0.806-0.542,1.254-0.348
			c0.448,0.193,0.7,0.673,0.607,1.151c-0.041,0.216-0.905,5.012,2.36,8.652c1.399-2.171,5.003-6.991,11.954-11.834
			c8.401-5.852,23.52-12.828,47.837-12.828c2.302,0,4.679,0.062,7.067,0.186c11.389,0.587,21.714,1.386,30.823,2.09
			c11.752,0.909,21.902,1.694,30.135,1.694c15.588,0,23.3-2.964,26.619-10.232c0.165-0.362,0.523-0.598,0.921-0.606
			c0.395-0.004,0.766,0.211,0.946,0.566c0.175,0.343,3.389,6.784,1.814,13.108c1.869-1.355,4.122-2.554,6.472-2.823
			c0.218-0.048,0.798-0.155,1.672-0.155c1.953,0,5.954,0.558,10.805,4.299c0.378,0.292,0.508,0.804,0.315,1.241
			c-0.193,0.437-0.659,0.684-1.13,0.602c-0.002,0-0.51-0.086-1.33-0.086c-2.148,0-6.007,0.563-9.265,4.048
			c4.093,0.774,13.628,3.767,18.321,15.104c0.178,0.431,0.047,0.927-0.32,1.214c-0.367,0.287-0.881,0.294-1.256,0.016
			c-0.029-0.021-3.225-2.313-8.282-2.313c-0.914,0-1.841,0.075-2.77,0.223c3.229,4.124,11.808,17.373,9.954,39.855
			c-0.003,0.034-0.007,0.069-0.013,0.103c-0.039,0.211-3.948,21.283-9.437,38.299c-5.442,16.869-9.052,41.622-9.087,41.87
			c-0.028,0.192-0.109,0.373-0.235,0.522l-15.212,17.978c-0.285,0.337-0.754,0.458-1.167,0.297c-0.412-0.16-0.678-0.564-0.661-1.006
			c0.955-24.824,2.449-73.101,1.271-78.134c-1.524-6.513-3.96-7.642-5.66-7.926c-0.348-0.058-0.644-0.29-0.783-0.615
			c-0.051-0.118-0.475-1.189,0.242-2.277c0.515-0.782,1.436-1.306,2.789-1.583c-4.243-2.189-12.348-5.717-20.498-5.717
			c-1.997,0-3.908,0.214-5.679,0.634c-0.361,0.087-0.743-0.029-0.997-0.301c-0.254-0.272-0.343-0.659-0.233-1.015
			c0.063-0.205,1.333-4.165,5.548-7.73c-3.195,0.691-8.302,2.371-15.111,6.43c-0.07,0.042-0.145,0.075-0.222,0.099
			c-0.459,0.143-11.405,3.504-26.289,3.504c-4.898,0-9.698-0.374-14.267-1.111c-10.021-1.616-17.629-1.864-23.183-2.045
			c-5.816-0.19-9.572-0.312-11.718-1.934c-1.312,0.969-3.463,2.703-4.138,3.884c-0.844,1.477,0.054,5.217,3.025,7.356
			c0.328,0.236,0.489,0.641,0.412,1.037c-0.076,0.397-0.375,0.713-0.767,0.811c-0.087,0.022-0.891,0.214-2.17,0.214
			c-1.778,0-4.304-0.367-6.99-1.928c0.393,2.692,1.8,7.305,6.779,9.139c0.39,0.144,0.657,0.506,0.677,0.922
			c0.02,0.415-0.209,0.803-0.583,0.985c-0.09,0.044-2.238,1.071-4.968,1.072c-1.727,0-3.305-0.405-4.698-1.206
			c-0.836,0.178-3.418,1.155-3.718,6.451c-0.394,6.956,1.34,58.836,2.132,63.807c0.305,1.916,1.154,8.279-0.747,9.705
			C195.427,307.736,195.208,307.805,194.989,307.805z M160.693,229.948c0.191,0,0.382,0.052,0.553,0.16
			c0.41,0.258,0.586,0.766,0.425,1.223c-5.956,16.856-2.087,34.512,11.5,52.478c8.489,11.225,18.305,19.033,21.415,21.376
			c0.209-1.133,0.289-3.421-0.276-6.966c-0.799-5.012-2.551-57.252-2.155-64.25c0.463-8.184,5.927-8.444,5.983-8.446
			c0.204-0.007,0.411,0.05,0.586,0.161c1.135,0.719,2.453,1.083,3.919,1.083c0.622,0,1.212-0.066,1.739-0.162
			c-6.027-3.921-5.869-11.879-5.866-11.969c0.012-0.391,0.242-0.742,0.597-0.908c0.354-0.166,0.772-0.118,1.08,0.123
			c2.611,2.047,5.167,2.625,7.001,2.714c-2.319-2.738-2.928-6.325-1.765-8.359c1.189-2.081,4.998-4.744,5.428-5.041
			c0.431-0.298,1.018-0.226,1.366,0.167c1.388,1.569,4.979,1.686,10.93,1.88c5.61,0.183,13.294,0.433,23.446,2.07
			c4.461,0.72,9.15,1.084,13.937,1.084c13.781,0,24.36-3.02,25.559-3.376c11.14-6.618,17.928-7.134,19.747-7.134
			c0.276,0,0.416,0.012,0.416,0.012c0.455,0.04,0.834,0.373,0.928,0.819c0.094,0.447-0.111,0.903-0.51,1.123
			c-4.098,2.258-6.28,5.344-7.308,7.237c1.335-0.201,2.725-0.303,4.152-0.303c12.373,0,24.153,7.423,24.648,7.74
			c0.395,0.252,0.572,0.738,0.432,1.185c-0.14,0.447-0.566,0.743-1.031,0.726c-0.3-0.012-0.583-0.018-0.852-0.018
			c-2.634,0-3.453,0.548-3.689,0.799c3.113,0.939,5.166,3.921,6.422,9.286c1.373,5.867-0.593,61.811-1.106,75.683l13.08-15.458
			c0.429-2.872,3.953-25.887,9.123-41.915c5.316-16.48,9.145-36.826,9.361-37.987c2.123-25.962-10.431-39.445-10.559-39.578
			c-0.254-0.267-0.349-0.649-0.247-1.004c0.102-0.354,0.384-0.628,0.742-0.719c1.649-0.418,3.312-0.629,4.943-0.629
			c2.749,0,5.004,0.591,6.627,1.223c-5.957-10.72-16.631-11.339-17.117-11.361c-0.381-0.017-0.723-0.243-0.888-0.587
			c-0.165-0.344-0.129-0.752,0.096-1.06c3.217-4.407,7.28-5.792,10.201-6.164c-3.06-1.723-5.463-2.027-6.778-2.027
			c-0.788,0-1.233,0.108-1.238,0.109c-0.046,0.012-0.101,0.022-0.148,0.027c-4.097,0.438-8.178,4.597-9.355,5.889
			c-0.134,0.159-0.273,0.318-0.418,0.474c-0.382,0.412-1.021,0.446-1.444,0.075c-0.423-0.37-0.473-1.01-0.115-1.442
			c0,0,0.145-0.175,0.413-0.47c3.825-4.596,2.397-10.836,1.3-13.965c-4.135,6.678-12.334,9.446-27.441,9.446
			c-8.314,0-18.5-0.788-30.295-1.7c-9.097-0.704-19.407-1.501-30.77-2.087c-2.352-0.121-4.694-0.183-6.96-0.183
			c-23.779,0-38.494,6.773-46.651,12.456c-8.761,6.103-11.968,12.205-12,12.266c-0.145,0.282-0.412,0.482-0.723,0.543
			c-0.312,0.061-0.634-0.024-0.874-0.231c-2.38-2.04-3.422-4.541-3.845-6.69c-1.777,7.141,1.185,16.675,1.222,16.79
			c0.117,0.371,0.017,0.777-0.259,1.051c-0.277,0.274-0.684,0.37-1.053,0.248c-1.473-0.485-2.972-0.73-4.457-0.73
			c-3.756,0-6.92,1.555-9.131,3.093c1.228-0.21,2.499-0.315,3.807-0.315c3.208,0,5.46,0.646,5.554,0.674
			c0.42,0.123,0.718,0.495,0.745,0.932c0.027,0.437-0.224,0.843-0.626,1.016c-14.27,6.132-21.922,18.476-22.742,36.689
			c-0.43,9.548,1.233,18.297,2.3,22.785c2.673-5.772,7.972-11.112,8.236-11.376C160.159,230.052,160.425,229.948,160.693,229.948z"
			/>
		<path fill="#7DDD0E" d="M323.612,264.48L323.612,264.48c-0.993,0-1.843-0.376-1.879-0.392c-8.878-3.541-17.765-5.339-26.407-5.339
			c-10.688,0-17.198,2.821-17.263,2.85l-0.166,0.073l-0.095-0.155c-3.074-5.031,1.732-12.672,1.938-12.995l0.048-0.075l0.087-0.017
			c2.678-0.52,5.478-0.783,8.32-0.783c20.343,0,38.134,13.461,38.312,13.598l0.095,0.073l-0.015,0.119
			C326.262,263.952,324.789,264.48,323.612,264.48z M295.326,258.334c8.694,0,17.633,1.807,26.568,5.371
			c0.016,0.007,0.816,0.359,1.717,0.359c1.438,0,2.294-0.862,2.547-2.563c-1.435-1.066-18.535-13.44-37.963-13.44
			c-2.784,0-5.526,0.255-8.152,0.758c-0.487,0.799-4.579,7.769-1.978,12.328C279.167,260.705,285.51,258.334,295.326,258.334z"/>
		<path fill="#AF5228" d="M251.826,313.821c0,0-0.004,0.085-0.013,0.243c-0.013,0.156-0.01,0.389-0.024,0.674
			c-0.008,0.287-0.001,0.634,0.007,1.022c0.017,0.389,0.031,0.821,0.088,1.279c0.053,0.457,0.122,0.943,0.249,1.428
			c0.123,0.485,0.275,0.979,0.5,1.44c0.227,0.46,0.479,0.912,0.818,1.307c0.339,0.393,0.703,0.778,1.153,1.087
			c0.422,0.34,0.922,0.599,1.416,0.865c0.259,0.115,0.521,0.226,0.775,0.349c0.268,0.099,0.536,0.192,0.796,0.298
			c0.539,0.17,1.063,0.355,1.584,0.481c0.513,0.156,1.016,0.26,1.481,0.379c0.464,0.127,0.902,0.197,1.289,0.298
			c0.387,0.098,0.731,0.17,1.014,0.234c0.283,0.058,0.508,0.127,0.662,0.164c0.154,0.044,0.236,0.067,0.236,0.067
			s-0.081,0.026-0.232,0.076c-0.152,0.043-0.374,0.119-0.66,0.188c-0.286,0.071-0.635,0.174-1.04,0.232
			c-0.406,0.06-0.865,0.152-1.373,0.18c-0.508,0.032-1.062,0.071-1.653,0.036c-0.591-0.009-1.218-0.092-1.867-0.199
			c-0.325-0.067-0.653-0.147-0.987-0.23c-0.331-0.106-0.666-0.214-1-0.343c-0.663-0.281-1.327-0.622-1.935-1.084
			c-0.613-0.446-1.156-1.017-1.594-1.639c-0.105-0.159-0.209-0.318-0.313-0.476c-0.085-0.168-0.17-0.335-0.254-0.502
			c-0.089-0.164-0.148-0.338-0.216-0.507c-0.067-0.17-0.128-0.339-0.17-0.512c-0.21-0.681-0.275-1.358-0.285-1.982
			c-0.011-0.626,0.069-1.203,0.173-1.72c0.215-1.035,0.576-1.824,0.864-2.347C251.602,314.083,251.826,313.821,251.826,313.821z"/>
		<path fill="#F9E1C5" d="M259.144,315.775c0,0-1.785,0.622-0.962,1.659c0.823,1.037,1.515,3.042,2.552,4.08
			c1.037,1.037,4.356-0.207,3.526-1.659C263.431,318.403,261.841,315.706,259.144,315.775z"/>
		<g>
			<path fill="#EF9354" d="M252.961,284.572c0,0,7.018-5.116,16.842-0.345v7.917c0,0-7.184-7.831-17.295-1.27L252.961,284.572z"/>
			<path fill="#E06D3F" d="M269.803,292.144v-7.917c-2.225-1.081-4.304-1.65-6.192-1.891c2.674,1.229,4.715,2.696,4.715,2.696v3.827
				c-2.659-3.112-6.205-3.596-6.205-3.596c-3.356-0.938-7.242,1.176-9.399,2.634l-0.214,2.975
				C262.62,284.313,269.803,292.144,269.803,292.144z"/>
		</g>
		<g>
			<path fill="#0D0D0D" d="M269.803,292.559c-0.114,0-0.225-0.047-0.305-0.134c-0.035-0.038-3.522-3.756-8.909-3.756
				c-2.601,0-5.244,0.859-7.854,2.552c-0.132,0.086-0.302,0.09-0.437,0.009c-0.136-0.08-0.214-0.23-0.203-0.387l0.452-6.301
				c0.009-0.122,0.071-0.234,0.17-0.306c0.138-0.1,3.434-2.459,8.701-2.459c2.848,0,5.73,0.698,8.567,2.076
				c0.143,0.069,0.234,0.214,0.234,0.373v7.917c0,0.171-0.105,0.324-0.264,0.387C269.905,292.549,269.854,292.559,269.803,292.559z
				 M260.589,287.839c4.344,0,7.463,2.193,8.8,3.343v-6.694c-2.647-1.248-5.328-1.881-7.971-1.881c-4.364,0-7.36,1.747-8.057,2.196
				l-0.38,5.288C255.502,288.596,258.058,287.839,260.589,287.839z"/>
		</g>
		<path fill="#FAD3A3" d="M328.473,292.455c0,0,6.534-11.305,16.387-7.156c0,0,8.09,3.112,6.638,13.483c0,0-1.141,9.749-9.957,11.72
			c-8.816,1.971-10.953,0.415-14.137-3.734L328.473,292.455z"/>
		<path fill="#AF5228" d="M335.358,312.179c-4.5,0-6.408-2.033-8.612-4.906l-0.193-0.251l1.107-14.818l0.095-0.164
			c0.2-0.346,4.995-8.486,12.774-8.486c1.543,0,3.109,0.329,4.654,0.98c0.063,0.024,8.663,3.465,7.137,14.363
			c-0.01,0.085-1.314,10.34-10.597,12.415C339.075,311.904,337.052,312.179,335.358,312.179z M328.255,306.513
			c2.198,2.822,3.731,4.007,7.103,4.007c1.548,0,3.511-0.271,6.002-0.828c8.122-1.815,9.269-10.633,9.314-11.008
			c1.348-9.625-6.037-12.583-6.112-12.611c-1.364-0.574-2.712-0.859-4.034-0.859c-6.27,0-10.563,6.418-11.243,7.503L328.255,306.513
			z"/>
		<path fill="#AF5228" d="M333.244,306.146c-0.008-0.619,0.049-1.225,0.134-1.822c0.089-0.596,0.213-1.184,0.361-1.765
			c0.302-1.16,0.714-2.29,1.24-3.382c0.136-0.271,0.271-0.543,0.419-0.811c0.15-0.266,0.308-0.53,0.47-0.792
			c0.167-0.261,0.341-0.516,0.53-0.77c0.179-0.257,0.389-0.499,0.594-0.742c0.215-0.242,0.437-0.477,0.686-0.7
			c0.245-0.225,0.505-0.442,0.802-0.634c0.286-0.198,0.607-0.375,0.963-0.51c0.347-0.145,0.749-0.224,1.151-0.248l0.188-0.011
			l0.054,0.012c0.19,0.044,0.247,0.083,0.363,0.128c0.097,0.047,0.18,0.098,0.268,0.148c0.176,0.099,0.317,0.22,0.468,0.334
			c0.14,0.123,0.263,0.257,0.39,0.384c0.126,0.127,0.217,0.282,0.323,0.419c0.107,0.137,0.195,0.285,0.268,0.44
			c0.08,0.15,0.147,0.306,0.217,0.456c0.038,0.073,0.056,0.158,0.084,0.235c0.026,0.079,0.051,0.158,0.071,0.238
			c0.042,0.16,0.088,0.315,0.119,0.475c-0.136-0.099-0.259-0.202-0.384-0.3c-0.063-0.048-0.123-0.098-0.181-0.149
			c-0.061-0.048-0.111-0.104-0.179-0.144c-0.128-0.087-0.259-0.166-0.377-0.252l-0.18-0.124l-0.191-0.102
			c-0.126-0.065-0.241-0.144-0.369-0.192c-0.126-0.049-0.245-0.106-0.366-0.147c-0.123-0.026-0.239-0.08-0.351-0.091
			c-0.055-0.007-0.112-0.02-0.161-0.022c-0.033,0.005-0.121-0.011-0.083,0.009l0.242,0.001c-0.17,0.08-0.331,0.166-0.501,0.292
			c-0.084,0.065-0.167,0.12-0.249,0.205c-0.084,0.073-0.169,0.141-0.251,0.232c-0.164,0.163-0.327,0.35-0.489,0.539
			c-0.16,0.192-0.314,0.401-0.474,0.605l-0.457,0.652c-0.156,0.216-0.296,0.452-0.447,0.677c-0.299,0.457-0.585,0.932-0.879,1.407
			c-0.584,0.955-1.171,1.931-1.792,2.908c-0.315,0.487-0.633,0.977-0.968,1.464C333.983,305.18,333.631,305.664,333.244,306.146z"/>
		<path fill="#FAD3A3" d="M192.953,292.455c0,0-6.534-11.305-16.387-7.156c0,0-8.09,3.112-6.638,13.483c0,0,1.141,9.749,9.957,11.72
			c8.816,1.971,10.953,0.415,14.137-3.734L192.953,292.455z"/>
		<path fill="#AF5228" d="M186.069,312.179c-0.001,0,0,0-0.001,0c-1.695,0-3.717-0.276-6.364-0.867
			c-9.283-2.075-10.588-12.33-10.6-12.434c-1.523-10.88,7.077-14.321,7.164-14.354c1.52-0.641,3.086-0.97,4.629-0.97
			c7.779,0,12.574,8.139,12.774,8.486l0.095,0.164l1.106,14.818l-0.193,0.251C192.476,310.146,190.568,312.179,186.069,312.179z
			 M180.898,285.214c-1.321,0-2.67,0.286-4.01,0.85c-0.327,0.128-7.477,3.041-6.138,12.603c0.047,0.392,1.194,9.21,9.316,11.025
			c2.491,0.557,4.454,0.828,6.002,0.828h0.001c3.371,0,4.904-1.185,7.102-4.007l-1.03-13.796
			C191.46,291.632,187.167,285.214,180.898,285.214z"/>
		<path fill="#AF5228" d="M188.182,306.146c-0.387-0.482-0.739-0.966-1.077-1.453c-0.335-0.488-0.654-0.977-0.968-1.464
			c-0.621-0.977-1.208-1.953-1.792-2.908c-0.294-0.475-0.581-0.951-0.879-1.407c-0.152-0.225-0.291-0.461-0.447-0.677l-0.457-0.652
			c-0.16-0.203-0.314-0.412-0.474-0.605c-0.162-0.189-0.325-0.376-0.489-0.539c-0.082-0.09-0.167-0.159-0.251-0.232
			c-0.082-0.084-0.165-0.139-0.249-0.205c-0.169-0.126-0.331-0.212-0.501-0.292l0.242-0.001c0.038-0.019-0.051-0.004-0.083-0.009
			c-0.048,0.002-0.106,0.016-0.161,0.022c-0.112,0.011-0.228,0.065-0.351,0.091c-0.121,0.041-0.24,0.098-0.366,0.147
			c-0.127,0.048-0.242,0.127-0.369,0.192l-0.191,0.102l-0.18,0.124c-0.118,0.086-0.249,0.165-0.377,0.252
			c-0.068,0.04-0.118,0.096-0.179,0.144c-0.058,0.051-0.117,0.1-0.181,0.149c-0.126,0.098-0.248,0.201-0.384,0.3
			c0.032-0.159,0.077-0.314,0.119-0.475c0.021-0.081,0.045-0.16,0.071-0.238c0.028-0.077,0.046-0.162,0.084-0.235
			c0.07-0.149,0.137-0.306,0.217-0.456c0.073-0.155,0.161-0.303,0.268-0.44c0.106-0.137,0.197-0.292,0.323-0.419
			c0.127-0.127,0.25-0.261,0.39-0.384c0.151-0.113,0.292-0.235,0.468-0.334c0.089-0.05,0.171-0.101,0.268-0.148
			c0.116-0.045,0.173-0.084,0.363-0.128l0.054-0.012l0.188,0.011c0.403,0.025,0.804,0.103,1.151,0.248
			c0.356,0.135,0.676,0.312,0.963,0.51c0.297,0.192,0.557,0.409,0.802,0.634c0.249,0.223,0.472,0.458,0.686,0.7
			c0.205,0.244,0.415,0.486,0.594,0.742c0.188,0.253,0.362,0.509,0.53,0.77c0.162,0.263,0.321,0.526,0.47,0.792
			c0.148,0.268,0.283,0.54,0.419,0.811c0.526,1.092,0.938,2.222,1.24,3.382c0.147,0.582,0.272,1.169,0.361,1.765
			C188.133,304.921,188.191,305.527,188.182,306.146z"/>
		<path fill="#0D0D0D" d="M335.155,150.502c6.19-6.95,0.89-17.357,0.89-17.357c-0.041,0.09-0.086,0.175-0.129,0.264
			c1.344,11.892-4.868,32.006-50.694,50.765c0,0,10.787-8.92,11.202-16.18c0,0-21.781,18.462-49.784,26.759
			c0,0,15.143-8.92,19.291-14.935c0,0-28.419,16.595-40.45,16.18s-21.889-3.112-29.718-10.164c0,0,3.635,10.805,15.31,18.448
			c0.232-0.167,0.371-0.263,0.371-0.263c3.181,3.596,13.552,0.83,34.987,4.287c21.309,3.437,39.86-2.29,40.078-2.358
			c0.013-0.007,0.026-0.014,0.039-0.021c0.215-0.128,0.425-0.249,0.637-0.373c2.7-1.594,5.195-3.502,7.378-5.786
			c0,0,28.268-18.679,42.128-50.865C335.937,149.628,335.398,150.224,335.155,150.502z"/>
		<path fill="#0D0D0D" d="M213.243,175.462c0,0,0.057-0.071,0.178-0.199c0.12-0.13,0.299-0.324,0.551-0.556
			c0.497-0.473,1.258-1.139,2.311-1.883c0.533-0.358,1.115-0.779,1.79-1.165c0.334-0.199,0.679-0.417,1.05-0.615
			c0.375-0.191,0.763-0.389,1.164-0.594c0.201-0.103,0.406-0.207,0.613-0.312c0.213-0.094,0.429-0.188,0.648-0.285
			c0.44-0.193,0.892-0.391,1.356-0.595c0.467-0.198,0.961-0.357,1.461-0.542c0.504-0.17,1.011-0.385,1.547-0.53
			c0.535-0.153,1.082-0.31,1.638-0.47c0.279-0.078,0.56-0.163,0.846-0.236c0.288-0.063,0.578-0.127,0.871-0.192
			c0.588-0.126,1.185-0.254,1.792-0.385c0.607-0.137,1.233-0.198,1.863-0.302c0.633-0.092,1.274-0.185,1.923-0.279
			c0.652-0.053,1.313-0.107,1.98-0.162c0.668-0.048,1.345-0.125,2.028-0.142c0.683-0.01,1.373-0.02,2.068-0.03
			c0.695,0.001,1.4-0.044,2.104-0.004c0.705,0.036,1.414,0.072,2.128,0.108c0.708,0.039,1.447,0.068,2.143,0.117
			c0.704,0.057,1.411,0.115,2.121,0.173c2.816,0.213,5.696,0.43,8.567,0.595c2.872,0.186,5.745,0.321,8.572,0.44
			c1.413,0.046,2.816,0.093,4.201,0.138c1.385,0.025,2.753,0.05,4.098,0.075c5.38,0.055,10.397-0.08,14.667-0.476
			c2.134-0.2,4.083-0.452,5.791-0.775c1.705-0.332,3.178-0.703,4.363-1.103c1.19-0.39,2.081-0.816,2.688-1.12
			c0.59-0.338,0.904-0.519,0.904-0.519s-0.263,0.247-0.786,0.698c-0.547,0.407-1.356,1.039-2.511,1.622
			c-1.143,0.603-2.585,1.245-4.297,1.803c-1.707,0.571-3.671,1.099-5.836,1.534c-4.331,0.878-9.451,1.429-14.933,1.646
			c-1.37,0.059-2.764,0.087-4.174,0.106c-0.705,0.005-1.414,0.009-2.127,0.014c-0.712-0.008-1.428-0.016-2.147-0.023
			c-2.875-0.036-5.791-0.166-8.702-0.335c-2.913-0.189-5.811-0.419-8.675-0.72c-1.421-0.15-2.835-0.308-4.182-0.416
			c-0.68-0.061-1.356-0.121-2.028-0.182c-0.672-0.063-1.338-0.061-2.001-0.095c-0.663-0.026-1.32-0.051-1.971-0.077
			c-0.651-0.015-1.293,0.016-1.931,0.017c-0.638,0.008-1.269,0.016-1.893,0.024c-0.621,0.044-1.234,0.087-1.839,0.129
			c-0.604,0.05-1.209,0.057-1.792,0.14c-0.585,0.073-1.162,0.145-1.729,0.215c-0.284,0.034-0.566,0.067-0.846,0.101
			c-0.277,0.043-0.55,0.098-0.821,0.146c-0.544,0.097-1.078,0.193-1.6,0.286c-0.528,0.08-1.024,0.23-1.522,0.338
			c-0.493,0.122-0.983,0.223-1.451,0.348c-0.466,0.135-0.921,0.266-1.362,0.394c-0.222,0.064-0.44,0.127-0.655,0.189
			c-0.211,0.074-0.418,0.148-0.622,0.22c-0.41,0.145-0.806,0.285-1.189,0.42c-0.377,0.152-0.74,0.298-1.089,0.438
			c-0.708,0.266-1.325,0.578-1.897,0.84c-0.289,0.127-0.541,0.281-0.791,0.408c-0.246,0.133-0.488,0.243-0.697,0.369
			c-0.421,0.247-0.789,0.449-1.069,0.64C213.529,175.235,213.243,175.462,213.243,175.462z"/>
		<path fill="#0D0D0D" d="M261.575,161.979c0,0,0.301,0.002,0.865,0.006c0.562,0,1.387,0.001,2.436,0.002
			c1.046-0.012,2.315-0.026,3.771-0.043c1.453-0.019,3.091-0.083,4.872-0.139c1.781-0.071,3.707-0.154,5.738-0.287
			c2.032-0.114,4.167-0.299,6.37-0.499c1.099-0.116,2.216-0.234,3.347-0.353c0.563-0.073,1.13-0.146,1.699-0.219
			c0.57-0.07,1.143-0.136,1.714-0.226c1.146-0.163,2.299-0.335,3.45-0.535c0.576-0.098,1.155-0.186,1.731-0.292l1.724-0.34
			c1.156-0.2,2.29-0.483,3.43-0.728c1.135-0.262,2.254-0.562,3.373-0.835c0.551-0.161,1.101-0.321,1.647-0.48
			c0.546-0.161,1.099-0.294,1.631-0.476c0.534-0.176,1.065-0.35,1.593-0.524c0.528-0.174,1.056-0.334,1.564-0.534
			c2.055-0.742,4.02-1.527,5.834-2.378c1.827-0.829,3.5-1.727,5.026-2.598c0.754-0.454,1.477-0.889,2.165-1.303
			c0.665-0.453,1.296-0.883,1.889-1.286c0.611-0.387,1.119-0.827,1.62-1.201c0.499-0.381,0.956-0.731,1.37-1.047
			c0.79-0.684,1.411-1.221,1.835-1.587c0.432-0.365,0.663-0.56,0.663-0.56s-0.175,0.245-0.502,0.703
			c-0.339,0.449-0.808,1.14-1.47,1.97c-0.351,0.398-0.739,0.838-1.162,1.317c-0.422,0.484-0.886,1.004-1.435,1.501
			c-0.54,0.512-1.115,1.057-1.72,1.632c-0.64,0.533-1.329,1.078-2.043,1.658c-1.463,1.106-3.106,2.243-4.933,3.294
			c-1.819,1.067-3.812,2.06-5.924,2.968c-0.523,0.243-1.061,0.455-1.607,0.658c-0.545,0.208-1.094,0.417-1.647,0.627
			c-1.11,0.405-2.251,0.759-3.398,1.129c-1.16,0.314-2.32,0.677-3.505,0.952c-1.186,0.266-2.369,0.575-3.569,0.79l-1.796,0.337
			c-0.599,0.105-1.201,0.191-1.799,0.287c-1.196,0.205-2.397,0.328-3.584,0.47c-2.377,0.27-4.725,0.425-6.996,0.504
			c-1.136,0.024-2.251,0.075-3.344,0.055c-1.092,0-2.16-0.008-3.199-0.051c-2.077-0.062-4.037-0.2-5.84-0.36
			c-1.803-0.171-3.45-0.376-4.903-0.595c-1.455-0.198-2.715-0.444-3.75-0.64c-1.035-0.198-1.842-0.396-2.391-0.526
			C261.865,162.064,261.575,161.979,261.575,161.979z"/>
		<path fill="#0D0D0D" d="M213.243,160.527c0,0,0.065-0.055,0.2-0.15c0.134-0.096,0.334-0.243,0.607-0.41
			c0.541-0.347,1.356-0.822,2.436-1.351c0.544-0.252,1.147-0.535,1.813-0.823c0.67-0.27,1.397-0.575,2.189-0.845
			c1.578-0.562,3.383-1.144,5.387-1.635c1.001-0.25,2.047-0.508,3.138-0.713c1.09-0.219,2.22-0.447,3.388-0.613
			c2.333-0.383,4.809-0.658,7.375-0.871c1.283-0.091,2.589-0.173,3.912-0.246c1.322-0.037,2.661-0.072,4.011-0.093
			c0.675-0.021,1.352-0.013,2.031,0c0.679,0.012,1.36,0.024,2.042,0.036c0.682,0.015,1.366,0.03,2.05,0.046l2.021,0.063
			c1.352,0.051,2.705,0.103,4.052,0.154c1.339,0.032,2.672,0.088,3.996,0.133c1.325,0.035,2.64,0.069,3.938,0.103
			c1.299,0.042,2.579,0.036,3.841,0.073c2.521,0.035,4.956,0.045,7.263,0.015c1.155-0.001,2.27-0.06,3.357-0.077
			c1.081-0.043,2.126-0.096,3.128-0.153c0.996-0.082,1.963-0.127,2.867-0.236c0.455-0.046,0.898-0.091,1.329-0.134
			c0.428-0.061,0.843-0.12,1.245-0.177c0.812-0.096,1.546-0.279,2.246-0.391c0.687-0.148,1.321-0.291,1.887-0.444
			c1.126-0.321,2.009-0.616,2.598-0.851c0.591-0.239,0.907-0.366,0.907-0.366s-0.281,0.194-0.808,0.557
			c-0.54,0.344-1.345,0.845-2.439,1.357c-0.546,0.255-1.164,0.513-1.841,0.786c-0.683,0.247-1.427,0.524-2.236,0.747
			c-1.61,0.507-3.461,0.918-5.492,1.301c-1.016,0.178-2.078,0.335-3.178,0.498c-1.1,0.131-2.241,0.282-3.412,0.391
			c-2.344,0.223-4.819,0.391-7.378,0.489c-2.559,0.102-5.201,0.142-7.885,0.134c-1.343-0.017-2.698-0.023-4.057-0.055
			c-1.358-0.029-2.706-0.081-4.062-0.124l-2.04-0.081c-0.669-0.02-1.337-0.04-2.004-0.061c-1.334-0.023-2.663-0.127-3.98-0.118
			c-1.317-0.004-2.625-0.021-3.917-0.041c-1.291,0.02-2.565,0.04-3.819,0.06c-2.505,0.077-4.93,0.169-7.22,0.355
			c-1.151,0.056-2.257,0.194-3.335,0.295c-1.081,0.085-2.112,0.241-3.109,0.366c-1.001,0.107-1.943,0.289-2.85,0.424
			c-0.911,0.123-1.755,0.317-2.561,0.465c-0.807,0.147-1.538,0.359-2.237,0.498c-0.688,0.167-1.317,0.338-1.887,0.492
			c-1.124,0.343-2.018,0.614-2.605,0.852C213.551,160.378,213.243,160.527,213.243,160.527z"/>
		<path fill="#0D0D0D" d="M191.48,185.626c0,0-0.218,0.087-0.627,0.251c-0.408,0.162-0.997,0.421-1.738,0.754
			c-0.742,0.332-1.631,0.755-2.634,1.258c-1.004,0.502-2.116,1.102-3.308,1.776c-1.182,0.694-2.458,1.441-3.749,2.315
			c-0.656,0.419-1.301,0.892-1.973,1.351c-0.644,0.502-1.338,0.958-1.989,1.497c-1.341,1.024-2.643,2.178-3.948,3.362
			c-1.272,1.219-2.546,2.475-3.71,3.831l-0.886,1.005c-0.285,0.343-0.557,0.696-0.836,1.043c-0.272,0.352-0.565,0.687-0.825,1.045
			c-0.262,0.357-0.524,0.713-0.784,1.068c-1.032,1.427-1.98,2.882-2.841,4.332c-0.465,0.706-0.809,1.463-1.222,2.166
			c-0.416,0.702-0.739,1.432-1.092,2.127c-0.175,0.349-0.347,0.693-0.517,1.032c-0.153,0.347-0.304,0.689-0.453,1.025
			c-0.295,0.674-0.604,1.319-0.861,1.954c-0.254,0.639-0.498,1.251-0.73,1.833c-0.115,0.292-0.244,0.573-0.34,0.855
			c-0.099,0.281-0.195,0.555-0.288,0.819c-0.369,1.061-0.745,1.982-0.972,2.762c-0.246,0.776-0.464,1.385-0.602,1.803
			c-0.147,0.417-0.226,0.64-0.226,0.64s0.005-0.235,0.014-0.675c0.018-0.439,0.03-1.088,0.078-1.913
			c0.019-0.83,0.169-1.818,0.308-2.964c0.118-1.152,0.419-2.418,0.698-3.82c0.151-0.698,0.375-1.406,0.572-2.153
			c0.102-0.372,0.209-0.75,0.326-1.131c0.131-0.377,0.264-0.759,0.399-1.147c0.273-0.776,0.548-1.577,0.902-2.367
			c0.168-0.399,0.341-0.801,0.52-1.206c0.09-0.202,0.18-0.406,0.27-0.61c0.101-0.199,0.201-0.4,0.303-0.601
			c0.205-0.402,0.411-0.807,0.619-1.216c0.106-0.203,0.213-0.407,0.32-0.612l0.353-0.599c0.476-0.798,0.931-1.626,1.487-2.397
			c0.267-0.393,0.536-0.787,0.805-1.183c0.265-0.399,0.576-0.766,0.867-1.15c0.297-0.379,0.588-0.764,0.892-1.138l0.946-1.097
			c0.624-0.739,1.321-1.41,1.986-2.105c0.327-0.354,0.696-0.663,1.045-0.99c0.356-0.32,0.699-0.652,1.062-0.958
			c0.731-0.606,1.44-1.226,2.197-1.767c0.373-0.277,0.743-0.553,1.111-0.826c0.38-0.255,0.758-0.509,1.132-0.76
			c0.371-0.255,0.749-0.494,1.128-0.721c0.378-0.228,0.753-0.454,1.124-0.678c0.765-0.407,1.487-0.845,2.235-1.192
			c1.464-0.748,2.906-1.332,4.238-1.842c2.685-0.983,5-1.528,6.633-1.795c0.815-0.143,1.464-0.202,1.904-0.247
			C191.244,185.628,191.48,185.626,191.48,185.626z"/>
		<path fill="#0D0D0D" d="M185.446,197.865c0,0-0.173,0.149-0.499,0.43c-0.324,0.278-0.784,0.704-1.36,1.248
			c-0.576,0.542-1.258,1.217-2.016,2.002c-0.76,0.785-1.583,1.697-2.455,2.703c-0.419,0.519-0.884,1.03-1.316,1.602
			c-0.222,0.28-0.447,0.564-0.676,0.853c-0.219,0.295-0.442,0.595-0.668,0.9c-0.456,0.603-0.889,1.247-1.344,1.894
			c-0.417,0.673-0.894,1.323-1.3,2.036c-0.874,1.385-1.645,2.886-2.421,4.408c-0.71,1.554-1.434,3.131-1.986,4.774
			c-0.143,0.409-0.305,0.811-0.437,1.223l-0.378,1.241c-0.269,0.821-0.457,1.662-0.679,2.487c-0.117,0.412-0.198,0.83-0.279,1.246
			c-0.088,0.415-0.176,0.828-0.264,1.239c-0.171,0.823-0.261,1.65-0.411,2.456c-0.215,1.623-0.394,3.205-0.471,4.719
			c-0.024,0.378-0.066,0.752-0.074,1.12c-0.007,0.369-0.015,0.733-0.022,1.09c-0.01,0.716-0.065,1.412-0.037,2.079
			c0.031,1.334,0.009,2.571,0.094,3.663c0.06,1.094,0.075,2.061,0.16,2.849c0.069,0.79,0.099,1.42,0.131,1.848
			c0.023,0.431,0.035,0.661,0.035,0.661s-0.085-0.213-0.244-0.611c-0.15-0.401-0.386-0.988-0.657-1.747
			c-0.298-0.753-0.546-1.694-0.851-2.778c-0.329-1.08-0.553-2.328-0.824-3.695c-0.076-0.341-0.125-0.692-0.166-1.052
			c-0.046-0.36-0.093-0.726-0.141-1.099c-0.045-0.374-0.09-0.754-0.136-1.141c-0.042-0.387-0.052-0.782-0.08-1.182
			c-0.114-1.601-0.108-3.301-0.013-5.059c0.12-1.757,0.334-3.574,0.712-5.393c0.21-0.904,0.368-1.832,0.658-2.728
			c0.132-0.452,0.264-0.905,0.396-1.358c0.14-0.451,0.306-0.894,0.461-1.34c0.626-1.785,1.424-3.505,2.277-5.155
			c0.462-0.806,0.887-1.625,1.394-2.382c0.246-0.382,0.49-0.762,0.732-1.139c0.251-0.371,0.52-0.726,0.777-1.085
			c0.505-0.722,1.061-1.388,1.59-2.048c0.278-0.318,0.554-0.633,0.825-0.945c0.269-0.313,0.541-0.616,0.827-0.9
			c1.096-1.176,2.234-2.184,3.293-3.088c1.082-0.883,2.103-1.647,3.045-2.269c0.942-0.623,1.784-1.127,2.498-1.505
			c0.707-0.388,1.29-0.645,1.682-0.823C185.228,197.94,185.446,197.865,185.446,197.865z"/>
		<path fill="#0D0D0D" d="M169.267,233.751c0,0,0.118,0.712,0.324,1.959c0.195,1.232,0.473,2.991,0.807,5.102
			c0.168,1.045,0.349,2.178,0.541,3.376c0.192,1.194,0.407,2.449,0.63,3.742c0.454,2.586,0.97,5.326,1.566,8.04
			c0.297,1.356,0.619,2.706,0.952,4.029c0.344,1.319,0.68,2.62,1.056,3.862c0.091,0.312,0.181,0.621,0.27,0.928
			c0.097,0.304,0.192,0.605,0.287,0.902c0.093,0.299,0.185,0.595,0.276,0.887c0.099,0.289,0.197,0.574,0.294,0.856
			c0.095,0.284,0.188,0.563,0.28,0.839c0.1,0.272,0.198,0.54,0.295,0.804c0.192,0.529,0.369,1.047,0.57,1.529
			c0.192,0.489,0.376,0.958,0.552,1.403c0.188,0.443,0.365,0.863,0.533,1.257c0.333,0.795,0.668,1.467,0.912,2.047
			c0.549,1.119,0.849,1.791,0.849,1.791s-0.135-0.121-0.389-0.347c-0.246-0.233-0.625-0.565-1.077-1.016
			c-0.427-0.468-0.97-1.029-1.527-1.723c-0.274-0.352-0.566-0.726-0.874-1.12c-0.299-0.402-0.584-0.842-0.899-1.294
			c-0.319-0.451-0.598-0.947-0.91-1.453c-0.314-0.505-0.601-1.045-0.896-1.602c-0.146-0.28-0.293-0.563-0.443-0.85
			c-0.138-0.292-0.277-0.588-0.418-0.886c-0.294-0.594-0.55-1.218-0.81-1.854c-0.274-0.631-0.509-1.287-0.746-1.952
			c-0.251-0.661-0.462-1.342-0.673-2.03c-0.434-1.372-0.779-2.79-1.111-4.209c-0.292-1.427-0.57-2.855-0.758-4.273
			c-0.049-0.354-0.098-0.707-0.146-1.057c-0.038-0.352-0.075-0.702-0.112-1.05c-0.08-0.695-0.135-1.384-0.181-2.062
			c-0.195-2.711-0.172-5.248-0.044-7.413c0.127-2.166,0.377-3.962,0.598-5.21C169.071,234.454,169.267,233.751,169.267,233.751z"/>
		<path fill="#0D0D0D" d="M185.446,209.689c0,0-0.426,0.836-1.053,2.327c-0.626,1.49-1.472,3.624-2.291,6.228
			c-0.424,1.296-0.818,2.717-1.212,4.219c-0.384,1.505-0.741,3.1-1.058,4.756c-0.09,0.412-0.143,0.835-0.221,1.255
			c-0.071,0.422-0.156,0.844-0.217,1.273c-0.11,0.86-0.261,1.723-0.351,2.602c-0.051,0.438-0.102,0.879-0.153,1.32
			c-0.038,0.443-0.077,0.887-0.115,1.332c-0.096,0.888-0.13,1.785-0.179,2.68c-0.069,0.894-0.059,1.793-0.093,2.686
			c0,0.894,0,1.785-0.001,2.669c0.03,0.884,0.068,1.761,0.087,2.63c0.055,0.867,0.123,1.723,0.166,2.568
			c0.079,0.843,0.157,1.673,0.233,2.484c0.067,0.815,0.203,1.603,0.285,2.379c0.076,0.778,0.208,1.526,0.319,2.254
			c0.116,0.727,0.195,1.439,0.332,2.109c0.252,1.346,0.441,2.599,0.686,3.692c0.227,1.098,0.393,2.072,0.584,2.859
			c0.18,0.79,0.299,1.423,0.391,1.851c0.083,0.432,0.128,0.662,0.128,0.662s-0.114-0.204-0.328-0.586
			c-0.206-0.386-0.523-0.948-0.898-1.677c-0.397-0.722-0.788-1.633-1.254-2.678c-0.483-1.04-0.914-2.255-1.404-3.581
			c-0.257-0.66-0.44-1.371-0.677-2.097c-0.226-0.728-0.452-1.485-0.639-2.274c-0.191-0.788-0.405-1.597-0.571-2.434
			c-0.167-0.837-0.325-1.696-0.475-2.572c-0.129-0.879-0.246-1.776-0.358-2.685c-0.083-0.912-0.168-1.836-0.225-2.77
			c-0.027-0.935-0.089-1.878-0.081-2.826c0.025-0.947,0.002-1.9,0.067-2.85c0.063-0.95,0.112-1.901,0.224-2.843
			c0.048-0.472,0.096-0.943,0.157-1.41c0.071-0.467,0.142-0.932,0.213-1.395c0.282-1.853,0.688-3.655,1.155-5.375
			c0.468-1.72,1.021-3.353,1.611-4.873c0.603-1.515,1.229-2.922,1.886-4.181c0.646-1.263,1.302-2.385,1.926-3.351
			c0.617-0.969,1.208-1.779,1.711-2.43c0.499-0.654,0.938-1.133,1.228-1.462C185.275,209.849,185.446,209.689,185.446,209.689z"/>
		<path fill="#0D0D0D" d="M342.406,186.179c0,0,0.159,0.063,0.44,0.225c0.145,0.077,0.316,0.184,0.511,0.315
			c0.196,0.131,0.435,0.274,0.665,0.469c0.238,0.188,0.503,0.401,0.785,0.642c0.268,0.251,0.549,0.533,0.856,0.834
			c0.159,0.147,0.305,0.312,0.448,0.487c0.147,0.174,0.297,0.352,0.452,0.536c0.154,0.186,0.311,0.377,0.473,0.573
			c0.15,0.202,0.292,0.417,0.443,0.633c0.293,0.437,0.617,0.89,0.906,1.381c0.276,0.496,0.548,1.018,0.836,1.555
			c0.071,0.135,0.143,0.27,0.215,0.407c0.065,0.139,0.119,0.282,0.18,0.425c0.118,0.287,0.238,0.577,0.36,0.871
			c0.122,0.294,0.245,0.592,0.362,0.896c0.059,0.152,0.119,0.304,0.178,0.457l0.142,0.47c0.37,1.261,0.796,2.57,0.993,3.933
			c0.119,0.679,0.253,1.362,0.361,2.052c0.058,0.692,0.117,1.386,0.175,2.081c0.04,0.695,0.113,1.392,0.119,2.083
			c-0.001,0.69-0.027,1.379-0.042,2.06c-0.015,0.682-0.034,1.358-0.072,2.024c-0.076,0.662-0.146,1.315-0.234,1.955
			c-0.087,0.64-0.159,1.27-0.254,1.883c-0.047,0.307-0.086,0.611-0.138,0.909c-0.066,0.296-0.131,0.588-0.195,0.876
			c-0.263,1.15-0.528,2.232-0.786,3.223c-0.235,0.996-0.578,1.879-0.858,2.664c-0.287,0.784-0.548,1.461-0.773,2.016
			c-0.22,0.555-0.416,0.984-0.539,1.279c-0.132,0.292-0.203,0.448-0.203,0.448s-0.002-0.173-0.006-0.497
			c0.005-0.321-0.004-0.796,0.015-1.39c0.014-0.595,0.044-1.314,0.089-2.131c0.039-0.819,0.141-1.73,0.138-2.736
			c0.026-1.001,0.068-2.079,0.131-3.212c0.017-0.283,0.035-0.569,0.053-0.86c0.007-0.29,0.001-0.585,0.002-0.882
			c-0.006-0.594,0.013-1.198,0.019-1.813c0.005-0.614,0.029-1.237,0.048-1.866c-0.024-0.629-0.05-1.263-0.061-1.902
			c-0.013-0.639-0.037-1.283-0.036-1.929c-0.015-0.645-0.099-1.284-0.142-1.928c-0.043-0.644-0.085-1.287-0.127-1.929
			c-0.099-0.631-0.17-1.263-0.254-1.889c-0.094-0.624-0.128-1.258-0.27-1.856c-0.12-0.604-0.239-1.202-0.34-1.796l-0.079-0.443
			l-0.114-0.427c-0.078-0.283-0.148-0.565-0.218-0.846c-0.149-0.556-0.253-1.123-0.441-1.636c-0.167-0.523-0.338-1.032-0.489-1.533
			c-0.161-0.496-0.373-0.947-0.539-1.406c-0.088-0.226-0.168-0.453-0.258-0.667c-0.099-0.21-0.195-0.415-0.289-0.614
			c-0.191-0.398-0.348-0.802-0.545-1.144c-0.189-0.354-0.365-0.685-0.529-0.991c-0.181-0.298-0.348-0.572-0.498-0.819
			c-0.146-0.257-0.304-0.458-0.428-0.653c-0.126-0.193-0.238-0.352-0.337-0.474C342.52,186.313,342.406,186.179,342.406,186.179z"/>
		<path fill="#0D0D0D" d="M349.597,175.462c0,0,0.215,0.251,0.578,0.751c0.358,0.503,0.889,1.244,1.481,2.239
			c0.597,0.992,1.297,2.218,1.986,3.683c0.7,1.46,1.427,3.144,2.083,5.037c1.321,3.777,2.395,8.393,2.715,13.443
			c0.167,2.522,0.146,5.148-0.103,7.797c-0.235,2.651-0.701,5.323-1.342,7.948c-0.174,0.653-0.338,1.309-0.527,1.956
			c-0.2,0.644-0.401,1.288-0.6,1.93c-0.381,1.219-0.808,2.465-1.208,3.682c-0.402,1.223-0.81,2.434-1.22,3.628
			c-0.411,1.194-0.817,2.373-1.216,3.533c-0.409,1.157-0.798,2.299-1.202,3.409c-0.4,1.111-0.797,2.199-1.146,3.259
			c-0.717,2.12-1.413,4.121-2.068,5.967c-0.333,0.922-0.652,1.805-0.955,2.646c-0.156,0.419-0.308,0.828-0.456,1.225
			c-0.137,0.4-0.271,0.789-0.4,1.165c-0.506,1.509-0.986,2.818-1.373,3.899c-0.197,0.54-0.372,1.022-0.525,1.442
			c-0.146,0.421-0.27,0.78-0.371,1.07c-0.208,0.582-0.318,0.892-0.318,0.892s0.038-0.327,0.109-0.939
			c0.076-0.612,0.179-1.516,0.385-2.645c0.191-1.134,0.414-2.515,0.714-4.09c0.269-1.584,0.686-3.339,1.112-5.266
			c0.438-1.923,0.927-4.005,1.463-6.203c0.253-1.106,0.58-2.212,0.891-3.352c0.31-1.14,0.651-2.297,0.985-3.477
			c0.343-1.178,0.692-2.375,1.044-3.587c0.353-1.212,0.719-2.436,1.096-3.667c0.378-1.236,0.758-2.481,1.14-3.731
			c0.182-0.603,0.365-1.208,0.547-1.813c0.173-0.608,0.316-1.224,0.479-1.835c0.619-2.452,1.066-4.944,1.366-7.415
			c0.062-0.619,0.135-1.235,0.187-1.85c0.045-0.616,0.09-1.229,0.135-1.838c0.022-0.611,0.043-1.218,0.065-1.821
			c0.005-0.604,0.01-1.203,0.015-1.798c-0.036-4.761-0.655-9.21-1.488-12.974c-0.418-1.882-0.871-3.6-1.335-5.108
			c-0.474-1.504-0.918-2.813-1.327-3.877c-0.413-1.061-0.748-1.898-1.002-2.457C349.741,175.758,349.597,175.462,349.597,175.462z"
			/>
		<path fill="#0D0D0D" d="M339.538,204.434c0,0,0.104,0.112,0.275,0.346c0.089,0.116,0.187,0.264,0.305,0.438
			c0.12,0.173,0.254,0.377,0.384,0.612c0.282,0.464,0.576,1.048,0.896,1.732c0.163,0.341,0.297,0.714,0.461,1.105
			c0.166,0.391,0.308,0.81,0.451,1.249c0.142,0.439,0.295,0.9,0.428,1.379c0.128,0.48,0.245,0.981,0.374,1.496
			c0.141,0.515,0.212,1.049,0.317,1.595c0.098,0.546,0.198,1.107,0.267,1.677c0.07,0.57,0.126,1.152,0.183,1.742
			c0.028,0.295,0.055,0.592,0.083,0.89c0.011,0.298,0.022,0.598,0.033,0.899c0.017,0.602,0.049,1.209,0.054,1.819
			c0.015,0.61-0.025,1.219-0.035,1.83c-0.028,0.61-0.056,1.22-0.084,1.827c-0.033,0.607-0.119,1.206-0.178,1.802
			c-0.124,1.192-0.269,2.363-0.496,3.481c-0.215,1.119-0.414,2.202-0.672,3.212c-0.269,1.009-0.539,1.958-0.802,2.828
			c-0.139,0.434-0.255,0.852-0.396,1.244c-0.147,0.389-0.287,0.759-0.418,1.106c-0.27,0.691-0.515,1.29-0.727,1.779
			c-0.207,0.491-0.394,0.869-0.511,1.13c-0.126,0.258-0.193,0.396-0.193,0.396s-0.006-0.154-0.017-0.443
			c-0.002-0.287-0.02-0.71-0.013-1.241c0.002-0.532,0.017-1.173,0.046-1.904c0.035-0.73,0.081-1.549,0.098-2.445
			c0.033-0.893,0.083-1.855,0.153-2.867c0.066-1.012,0.085-2.082,0.163-3.178c0.02-0.55,0.093-1.105,0.1-1.67
			c0.016-0.565,0.04-1.135,0.074-1.708c0.031-0.573,0.062-1.151,0.093-1.731c0.016-0.579,0.033-1.161,0.05-1.742
			c0.076-1.163,0.065-2.322,0.096-3.465c0.049-1.146-0.005-2.262,0.024-3.355c0.009-0.546-0.034-1.076-0.031-1.601
			c-0.008-0.524-0.008-1.041-0.036-1.537c-0.019-0.499-0.045-0.985-0.056-1.458c-0.013-0.473-0.063-0.923-0.082-1.363
			c-0.012-0.22-0.023-0.436-0.034-0.646c-0.019-0.209-0.037-0.413-0.055-0.613c-0.034-0.402-0.066-0.783-0.096-1.141
			c-0.038-0.357-0.08-0.691-0.107-1.006c-0.031-0.313-0.081-0.594-0.109-0.856c-0.069-0.519-0.127-0.933-0.18-1.21
			C339.57,204.587,339.538,204.434,339.538,204.434z"/>
		<path fill="#FFFFFF" d="M232.612,332.905c0,0,29.862,8.297,54.063,0l-4.978,14.244c0,0-15.35,9.819-40.104,1.521
			C241.592,348.67,235.525,343,232.612,332.905z"/>
		<path fill="#AF5228" d="M261.005,352.831c-6.378,0-12.998-1.135-19.677-3.374l-0.171-0.058l-0.132-0.123
			c-0.254-0.238-6.268-5.944-9.211-16.141l-0.412-1.427l1.431,0.397c0.132,0.036,13.358,3.657,29.068,3.657
			c9.209,0,17.453-1.226,24.503-3.643l1.616-0.554l-5.637,16.127l-0.242,0.154C281.825,348.051,274.201,352.831,261.005,352.831z
			 M242.036,347.943c6.447,2.142,12.829,3.228,18.969,3.228c11.456,0,18.643-3.795,20.007-4.58l4.326-12.377
			c-6.857,2.13-14.731,3.208-23.436,3.208c-12.905,0-24.165-2.411-28.06-3.35C236.53,342.191,241.217,347.125,242.036,347.943z"/>
		<path fill="#AF5228" d="M243.528,343.139c-2.941-0.42-5.385-0.997-7.21-1.514c0.555,0.965,1.11,1.834,1.641,2.608
			C240.846,344.011,243.528,343.139,243.528,343.139z"/>
		<path fill="#AF5228" d="M284.344,339.574c-1.871,0.89-5.93,2.58-10.323,2.879c0,0,5.678,0.564,9.216,0.287L284.344,339.574z"/>
		<path fill="#AF5228" d="M253.623,357.797c0,0,11.616,2.282,17.909-0.761c0,0-4.771,3.457-6.292,4.01c0,0-2.697,0.415-4.218,0
			L253.623,357.797z"/>
		<path fill="#3E3E3E" d="M198.584,261.409c0,0,22.68-17.391,46.465-12.775c0,0,4.978,7.797,1.936,12.775
			c0,0-17.839-7.883-43.838,2.489C203.148,263.898,199.137,265.696,198.584,261.409z"/>
		<path fill="#0D0D0D" d="M247.783,255.572c-26.328-4.087-42.248,4.306-48.014,8.231c1.37,0.994,3.379,0.096,3.379,0.096
			c25.999-10.372,43.838-2.489,43.838-2.489C248.056,259.658,248.132,257.559,247.783,255.572z"/>
		<path fill="#0D0D0D" d="M201.353,264.687c-1.033,0-2.819-0.419-3.181-3.225c-0.019-0.147,0.042-0.292,0.159-0.382
			c0.178-0.136,18.025-13.64,38.438-13.64c2.855,0,5.668,0.265,8.359,0.787c0.112,0.022,0.209,0.088,0.271,0.184
			c0.209,0.327,5.082,8.074,1.94,13.215c-0.109,0.177-0.332,0.247-0.522,0.163c-0.064-0.028-6.55-2.832-17.179-2.832
			c-8.615,0-17.476,1.792-26.337,5.327C203.28,264.294,202.39,264.687,201.353,264.687z M199.031,261.594
			c0.258,1.523,1.019,2.264,2.322,2.264c0.854,0,1.618-0.335,1.625-0.338c8.975-3.581,17.939-5.393,26.66-5.393
			c9.547,0,15.674,2.168,17.167,2.759c2.298-4.341-1.377-10.816-2.015-11.879c-2.585-0.489-5.283-0.738-8.022-0.738
			C217.773,248.27,201.012,260.139,199.031,261.594z"/>
		<ellipse fill="#B4AA93" cx="222.992" cy="289.136" rx="15.454" ry="20.225"/>
		<path fill="#F4F1DD" d="M233.619,287.771c0.753,1.664,4.24,9.218,4.222-4.233c-1.856-8.445-7.799-14.626-14.849-14.626
			c-8.535,0-15.454,9.055-15.454,20.225c0,3.004,0.504,5.852,1.402,8.415c1.587,1.489,4.542,3.24,8.97,1.905
			c0,0,4.079-7.934,4.659-7.986c0.579-0.052,8.565-4.408,8.669-4.149C231.341,287.581,232.837,286.042,233.619,287.771z"/>
		<path fill="#2C0D00" d="M238.529,289.137c0,0-0.001,0.111-0.004,0.324c-0.006,0.213,0.002,0.528-0.02,0.942
			c-0.031,0.829-0.127,2.039-0.359,3.571c-0.252,1.526-0.656,3.378-1.444,5.413c-0.795,2.021-1.971,4.257-3.847,6.268
			c-0.929,1.01-2.061,1.922-3.353,2.681c-0.648,0.375-1.339,0.711-2.074,0.967c-0.729,0.267-1.495,0.481-2.289,0.597
			c-3.193,0.543-6.67-0.376-9.422-2.381c-2.76-2.007-4.859-4.888-6.295-8.072c-0.722-1.596-1.272-3.282-1.661-5.013
			c-0.404-1.732-0.619-3.501-0.677-5.306c-0.102-3.554,0.463-7.216,1.899-10.498c1.412-3.277,3.615-6.234,6.505-8.219
			c2.865-2.007,6.488-2.796,9.674-2.173c0.401,0.059,0.788,0.172,1.176,0.264c0.379,0.122,0.762,0.225,1.125,0.374
			c0.737,0.268,1.427,0.614,2.076,0.997c1.292,0.775,2.419,1.7,3.344,2.718c1.87,2.027,3.042,4.266,3.833,6.29
			c0.786,2.037,1.192,3.89,1.441,5.417c0.231,1.532,0.323,2.744,0.352,3.571c0.021,0.413,0.012,0.731,0.018,0.944
			C238.528,289.026,238.529,289.137,238.529,289.137z M238.363,289.136c0,0-0.003-0.109-0.009-0.321
			c-0.01-0.212-0.007-0.528-0.036-0.938c-0.044-0.82-0.147-2.025-0.469-3.523c-0.072-0.376-0.181-0.764-0.277-1.175
			c-0.126-0.403-0.236-0.831-0.394-1.263c-0.285-0.873-0.667-1.793-1.141-2.736c-0.938-1.887-2.29-3.874-4.144-5.604
			c-1.844-1.714-4.236-3.187-7.022-3.634c-0.351-0.064-0.687-0.089-1.026-0.12c-0.169-0.016-0.377-0.012-0.565-0.019l-0.289-0.007
			l-0.242,0.011c-0.719,0.007-1.442,0.106-2.161,0.259c-0.721,0.148-1.43,0.392-2.123,0.689c-0.693,0.298-1.373,0.656-2.021,1.083
			c-2.611,1.695-4.714,4.359-6.122,7.39c-1.415,3.041-2.207,6.44-2.33,9.916c-0.038,1.711,0.071,3.464,0.375,5.165
			c0.159,0.851,0.367,1.691,0.611,2.518c0.263,0.82,0.551,1.632,0.905,2.412c1.383,3.124,3.589,5.864,6.331,7.536
			c0.678,0.423,1.384,0.784,2.11,1.063c0.723,0.282,1.459,0.508,2.203,0.636c0.184,0.041,0.37,0.065,0.556,0.088
			c0.184,0.02,0.373,0.058,0.551,0.063l0.537,0.035l0.579,0.006c0.716-0.001,1.449-0.058,2.142-0.201
			c2.81-0.508,5.19-2.011,7.028-3.741c1.847-1.745,3.195-3.736,4.13-5.626c0.473-0.944,0.855-1.864,1.14-2.738
			c0.158-0.433,0.267-0.861,0.393-1.264c0.095-0.411,0.204-0.8,0.276-1.176c0.321-1.498,0.42-2.706,0.462-3.523
			c0.028-0.409,0.024-0.727,0.033-0.94C238.36,289.245,238.363,289.136,238.363,289.136z"/>
		<ellipse fill="#612F18" cx="223.368" cy="290.873" rx="10.52" ry="13.768"/>
		<path fill="#4F210F" d="M214.982,293.263c0-7.031,4.329-12.731,9.67-12.731c4.248,0,7.854,3.608,9.153,8.623
			c-0.646-6.793-5.07-12.05-10.436-12.05c-5.81,0-10.52,6.164-10.52,13.768c0,5.295,2.285,9.888,5.633,12.192
			C216.344,300.73,214.982,297.206,214.982,293.263z"/>
		<path fill="#2C0D00" d="M223.368,304.849c-5.915,0-10.728-6.269-10.728-13.976s4.812-13.976,10.728-13.976
			s10.728,6.269,10.728,13.976S229.284,304.849,223.368,304.849z M223.368,277.313c-5.686,0-10.313,6.083-10.313,13.561
			s4.626,13.561,10.313,13.561s10.313-6.083,10.313-13.561S229.055,277.313,223.368,277.313z"/>
		<ellipse fill="#3C2413" cx="224.208" cy="292.144" rx="5.448" ry="7.572"/>
		<path fill="#A35D2F" d="M214.073,289.62c0,0,0,2.973,1.659,3.25c0,0,0.415,0.484,1.452-2.42c1.037-2.904,3.734-9.613,10.51-5.878
			c0,0,1.348,0.831,2.213,3.043s0.933,3.388,0.933,4.08s1.694,1.088,1.763-0.821c0.069-1.91-0.104-9.377-7.122-11.797
			s-10.061,4.564-10.994,7.433C214.487,286.509,214.142,288.445,214.073,289.62z"/>
		<path fill="#2C0D00" d="M240.417,280.847c0,0-0.196-0.216-0.54-0.593c-0.342-0.373-0.825-0.904-1.416-1.518
			c-0.289-0.312-0.61-0.641-0.95-0.985c-0.328-0.355-0.709-0.695-1.071-1.073c-0.387-0.355-0.768-0.738-1.175-1.104
			c-0.414-0.358-0.809-0.75-1.246-1.092l-0.632-0.539c-0.218-0.169-0.435-0.338-0.65-0.505c-0.218-0.164-0.424-0.341-0.639-0.5
			c-0.218-0.155-0.433-0.308-0.645-0.459c-0.211-0.152-0.416-0.309-0.624-0.449c-0.211-0.137-0.417-0.27-0.618-0.4
			c-0.2-0.134-0.395-0.265-0.583-0.392c-0.19-0.124-0.384-0.224-0.565-0.334c-0.364-0.222-0.697-0.425-0.993-0.606
			c-0.309-0.154-0.574-0.306-0.796-0.428c-0.442-0.246-0.695-0.408-0.695-0.408s0.29,0.021,0.799,0.094
			c0.254,0.038,0.566,0.08,0.919,0.148c0.349,0.081,0.737,0.194,1.162,0.322c0.211,0.066,0.435,0.131,0.66,0.213
			c0.22,0.093,0.447,0.189,0.681,0.288c0.233,0.103,0.473,0.209,0.718,0.318c0.244,0.11,0.474,0.257,0.719,0.388
			c0.488,0.268,0.985,0.559,1.453,0.907c0.237,0.169,0.484,0.332,0.717,0.512l0.684,0.564c0.46,0.374,0.878,0.793,1.291,1.202
			c0.213,0.199,0.398,0.42,0.588,0.632c0.188,0.214,0.377,0.421,0.552,0.635c0.337,0.438,0.675,0.85,0.951,1.275
			c0.14,0.21,0.275,0.415,0.407,0.613c0.121,0.204,0.238,0.402,0.35,0.592c0.227,0.376,0.396,0.747,0.557,1.064
			c0.154,0.323,0.276,0.61,0.368,0.85C240.346,280.559,240.417,280.847,240.417,280.847z"/>
		<path fill="#2C0D00" d="M208.99,274.408c0,0,0.222-0.448,0.71-1.176c0.247-0.361,0.555-0.796,0.934-1.275
			c0.38-0.479,0.822-1.011,1.355-1.546c0.522-0.546,1.128-1.1,1.808-1.642c0.676-0.548,1.441-1.061,2.265-1.54
			c0.839-0.451,1.728-0.892,2.687-1.201c0.956-0.309,1.956-0.557,2.975-0.661c1.017-0.132,2.046-0.096,3.048-0.024
			c0.499,0.057,0.992,0.134,1.476,0.218c0.477,0.118,0.952,0.218,1.41,0.348c0.452,0.15,0.9,0.285,1.33,0.441
			c0.42,0.178,0.831,0.353,1.231,0.523c0.396,0.177,0.765,0.384,1.128,0.568c0.18,0.096,0.359,0.185,0.529,0.282
			c0.167,0.103,0.331,0.204,0.491,0.304c0.32,0.199,0.626,0.389,0.918,0.57c0.277,0.202,0.54,0.393,0.788,0.572
			c0.246,0.18,0.476,0.349,0.689,0.504c0.21,0.159,0.392,0.32,0.561,0.458c0.671,0.561,1.046,0.888,1.046,0.888
			s-0.421-0.271-1.141-0.758c-0.181-0.12-0.375-0.263-0.598-0.401c-0.225-0.134-0.468-0.279-0.728-0.434
			c-0.259-0.154-0.536-0.317-0.827-0.49c-0.299-0.157-0.613-0.322-0.941-0.495c-0.163-0.086-0.33-0.175-0.5-0.264
			c-0.173-0.084-0.354-0.159-0.535-0.24c-0.366-0.157-0.732-0.344-1.125-0.496c-0.395-0.145-0.801-0.295-1.216-0.448
			c-0.423-0.124-0.854-0.251-1.294-0.38c-0.443-0.111-0.9-0.192-1.358-0.293c-0.464-0.063-0.934-0.126-1.408-0.18
			c-0.951-0.058-1.923-0.083-2.882,0.05c-0.963,0.088-1.91,0.313-2.819,0.597c-0.91,0.289-1.773,0.667-2.588,1.08
			c-0.798,0.443-1.563,0.893-2.241,1.392c-0.679,0.497-1.306,0.994-1.852,1.492c-1.101,0.986-1.938,1.904-2.489,2.576
			c-0.272,0.338-0.49,0.602-0.628,0.791C209.064,274.308,208.99,274.408,208.99,274.408z"/>
		<ellipse fill="#E8EAE7" cx="228.283" cy="286.271" rx="3.632" ry="5.424"/>
		<path opacity="0.2" fill="#FCEEE2" d="M194.576,273.95c0,0-2.006-12.047,7.941-13.272s36.226-1.523,38.293-1.305
			c2.067,0.218,9.9-0.218,11.096,11.096s0.435,26.652-0.762,29.699c-1.197,3.046-3.264,10.443-14.142,12.184
			c0,0-19.146,1.741-26.87-2.176c-7.724-3.916-9.464-6.853-10.879-12.619S194.576,273.95,194.576,273.95z"/>
		<path fill="#E06D3F" d="M253.623,274.962c-0.277-18.254-11.063-16.595-11.063-16.595s-14.659-1.245-34.711-0.691
			c-20.052,0.553-16.042,17.978-16.042,17.978s0.415,3.042,2.489,18.807c2.074,15.765,14.106,18.531,14.106,18.531
			s13.276,2.628,26.413,2.074c13.138-0.553,15.074-8.021,16.331-10.51C252.404,302.066,253.9,293.216,253.623,274.962z
			 M249.855,299.508c-1.141,2.904-3.112,9.957-13.483,11.616c0,0-18.254,1.659-25.618-2.074s-9.023-6.534-10.372-12.031
			c-1.348-5.497-4.46-22.507-4.46-22.507s-1.913-11.486,7.571-12.654c9.484-1.168,34.538-1.452,36.509-1.245
			c1.971,0.207,9.438-0.207,10.579,10.579C251.722,281.98,250.996,296.604,249.855,299.508z"/>
		<path fill="#0D0D0D" d="M231.073,315.557c-0.001,0-0.001,0-0.002,0c-11.705,0-22.64-2.137-22.749-2.159
			c-0.136-0.031-12.348-3.017-14.436-18.884c-2.05-15.582-2.485-18.775-2.489-18.806c-0.062-0.263-1.635-7.368,2.526-12.746
			c2.79-3.606,7.472-5.524,13.915-5.702c3.414-0.094,6.9-0.142,10.362-0.142c13.9,0,23.606,0.77,24.35,0.831
			c0.103-0.012,0.348-0.037,0.698-0.037c2.471,0,10.55,1.229,10.79,17.042c0.269,17.75-1.126,27.026-2.521,29.788
			c-0.12,0.237-0.245,0.519-0.387,0.837c-1.357,3.048-4.179,9.39-16.297,9.9C233.622,315.531,232.357,315.557,231.073,315.557z
			 M218.2,257.949c-3.454,0-6.933,0.048-10.339,0.142c-6.18,0.17-10.647,1.979-13.278,5.375c-3.922,5.063-2.387,12.026-2.371,12.095
			c0.011,0.067,0.445,3.26,2.496,18.846c2.013,15.302,13.67,18.154,13.787,18.181c0.096,0.019,10.955,2.14,22.575,2.14
			c0.001,0,0.001,0,0.002,0c1.272,0,2.526-0.026,3.726-0.076c11.604-0.489,14.285-6.513,15.574-9.408
			c0.148-0.332,0.28-0.627,0.404-0.874c1.289-2.551,2.699-11.782,2.432-29.401c-0.228-15.056-7.681-16.226-9.96-16.226
			c-0.39,0-0.624,0.034-0.626,0.034c-0.031,0.005-0.065,0.007-0.097,0.003C242.427,258.772,232.561,257.949,218.2,257.949z
			 M227.282,311.907c-5.388,0-12.662-0.431-16.716-2.487c-7.443-3.774-9.217-6.718-10.587-12.302
			c-1.336-5.446-4.434-22.361-4.465-22.531c-0.042-0.249-0.959-6,1.935-9.873c1.38-1.848,3.397-2.947,5.994-3.266
			c7.517-0.926,25.227-1.31,33.038-1.31c1.346,0,3.056,0.011,3.564,0.065c0.15,0.016,0.332,0.028,0.542,0.041
			c2.549,0.169,9.318,0.616,10.407,10.907c1.099,10.395,0.489,25.35-0.753,28.51c-0.074,0.189-0.152,0.395-0.235,0.616
			c-1.181,3.139-3.639,9.67-13.569,11.258C236.369,311.541,232.29,311.907,227.282,311.907z M236.481,260.966
			c-7.793,0-25.455,0.382-32.937,1.304c-2.362,0.291-4.188,1.279-5.428,2.936c-2.682,3.587-1.794,9.181-1.785,9.237
			c0.03,0.163,3.124,17.054,4.454,22.476c1.367,5.571,3.106,8.186,10.156,11.76c3.907,1.981,11.043,2.397,16.341,2.397
			c4.969,0,9.012-0.362,9.053-0.366c9.426-1.509,11.683-7.506,12.895-10.727c0.085-0.225,0.164-0.435,0.239-0.627
			c1.089-2.772,1.831-17.419,0.699-28.12c-1.015-9.596-7.056-9.995-9.636-10.166c-0.222-0.015-0.415-0.028-0.573-0.045
			C239.596,260.988,238.328,260.966,236.481,260.966z"/>
		<path fill="#EF9354" d="M251.906,270.469c-1.197-11.314-9.029-10.879-11.096-11.096c-2.067-0.218-28.345,0.081-38.293,1.305
			c-9.948,1.225-7.941,13.272-7.941,13.272s3.264,17.841,4.678,23.607c1.414,5.766,3.155,8.703,10.879,12.619
			c7.724,3.916,26.87,2.176,26.87,2.176c10.879-1.741,12.945-9.138,14.142-12.184C252.342,297.121,253.103,281.782,251.906,270.469z
			 M236.372,311.124c0,0-18.254,1.659-25.618-2.074s-9.023-6.534-10.372-12.031c-1.348-5.497-4.46-22.507-4.46-22.507
			s-1.913-11.486,7.571-12.654c9.484-1.168,34.538-1.452,36.509-1.245c1.971,0.207,9.438-0.207,10.579,10.579
			c1.141,10.787,0.415,25.411-0.726,28.315C248.714,302.412,246.744,309.465,236.372,311.124z"/>
		<path fill="#3E3E3E" d="M324.134,261.409c0,0-22.68-17.391-46.465-12.775c0,0-4.978,7.797-1.936,12.775
			c0,0,17.839-7.883,43.838,2.489C319.57,263.898,323.581,265.696,324.134,261.409z"/>
		<path fill="#0D0D0D" d="M274.935,255.572c26.328-4.087,42.248,4.306,48.014,8.231c-1.37,0.994-3.379,0.096-3.379,0.096
			c-25.999-10.372-43.838-2.489-43.838-2.489C274.662,259.658,274.586,257.559,274.935,255.572z"/>
		<path fill="#0D0D0D" d="M321.365,264.687L321.365,264.687c-1.037,0-1.927-0.393-1.964-0.41c-8.845-3.528-17.706-5.32-26.322-5.32
			c-10.629,0-17.115,2.804-17.179,2.832c-0.191,0.084-0.413,0.014-0.522-0.163c-3.141-5.141,1.731-12.888,1.94-13.215
			c0.061-0.096,0.159-0.162,0.271-0.184c2.691-0.522,5.504-0.787,8.359-0.787c20.413,0,38.26,13.504,38.438,13.64
			c0.117,0.09,0.178,0.236,0.159,0.382C324.183,264.268,322.397,264.687,321.365,264.687z M293.079,258.127
			c8.721,0,17.685,1.812,26.645,5.386c0.023,0.01,0.787,0.344,1.641,0.344c1.303,0,2.065-0.741,2.322-2.264
			c-1.982-1.455-18.75-13.324-37.739-13.324c-2.739,0-5.437,0.248-8.022,0.738c-0.637,1.064-4.31,7.542-2.015,11.879
			C277.405,260.295,283.532,258.127,293.079,258.127z"/>
		<ellipse fill="#B4AA93" cx="299.726" cy="289.136" rx="15.454" ry="20.225"/>
		<path fill="#F4F1DD" d="M289.099,287.771c-0.753,1.664-4.24,9.218-4.222-4.233c1.856-8.445,7.799-14.626,14.849-14.626
			c8.535,0,15.454,9.055,15.454,20.225c0,3.004-0.504,5.852-1.402,8.415c-1.587,1.489-4.542,3.24-8.97,1.905
			c0,0-4.079-7.934-4.659-7.986c-0.579-0.052-8.565-4.408-8.669-4.149C291.377,287.581,289.881,286.042,289.099,287.771z"/>
		<path fill="#2C0D00" d="M284.355,289.136c0,0,0.003,0.109,0.008,0.322c0.009,0.212,0.005,0.53,0.033,0.94
			c0.041,0.817,0.141,2.025,0.462,3.523c0.071,0.376,0.18,0.765,0.276,1.176c0.126,0.404,0.235,0.832,0.393,1.264
			c0.285,0.874,0.666,1.794,1.14,2.738c0.935,1.89,2.283,3.881,4.13,5.626c1.838,1.73,4.217,3.232,7.028,3.741
			c0.693,0.143,1.426,0.2,2.142,0.201l0.579-0.006l0.537-0.035c0.178-0.004,0.367-0.043,0.551-0.063
			c0.186-0.023,0.372-0.047,0.556-0.088c0.744-0.128,1.48-0.354,2.203-0.636c0.726-0.28,1.431-0.64,2.11-1.063
			c2.742-1.673,4.948-4.413,6.331-7.536c0.354-0.78,0.642-1.592,0.905-2.412c0.244-0.827,0.452-1.667,0.611-2.518
			c0.303-1.705,0.413-3.445,0.375-5.174c-0.122-3.459-0.915-6.87-2.33-9.907c-1.407-3.031-3.51-5.695-6.122-7.39
			c-0.647-0.428-1.327-0.786-2.021-1.083c-0.693-0.297-1.402-0.541-2.123-0.689c-0.719-0.153-1.442-0.252-2.161-0.259l-0.241-0.011
			l-0.289,0.007c-0.188,0.007-0.396,0.003-0.565,0.019c-0.339,0.031-0.675,0.055-1.026,0.12c-2.787,0.447-5.178,1.92-7.022,3.634
			c-1.854,1.73-3.206,3.718-4.144,5.604c-0.474,0.943-0.856,1.862-1.141,2.736c-0.158,0.432-0.268,0.86-0.394,1.263
			c-0.096,0.411-0.205,0.799-0.277,1.175c-0.322,1.497-0.425,2.703-0.469,3.523c-0.029,0.41-0.026,0.725-0.036,0.938
			C284.358,289.027,284.355,289.136,284.355,289.136z M284.189,289.137c0,0,0.001-0.111,0.003-0.325
			c0.006-0.214-0.004-0.531,0.018-0.944c0.029-0.827,0.12-2.039,0.352-3.571c0.249-1.527,0.654-3.38,1.441-5.417
			c0.791-2.025,1.964-4.264,3.833-6.29c0.926-1.018,2.053-1.942,3.344-2.718c0.649-0.382,1.339-0.729,2.076-0.997
			c0.362-0.15,0.745-0.252,1.125-0.374c0.388-0.091,0.775-0.204,1.176-0.264c3.187-0.622,6.809,0.166,9.674,2.173
			c2.89,1.985,5.093,4.942,6.505,8.219c1.435,3.286,2,6.935,1.899,10.507c-0.058,1.788-0.273,3.569-0.677,5.298
			c-0.389,1.731-0.939,3.417-1.661,5.013c-1.436,3.184-3.536,6.065-6.295,8.072c-2.752,2.005-6.229,2.924-9.422,2.381
			c-0.794-0.116-1.56-0.33-2.289-0.597c-0.735-0.256-1.425-0.591-2.073-0.967c-1.292-0.759-2.424-1.671-3.353-2.681
			c-1.877-2.012-3.053-4.247-3.847-6.268c-0.788-2.035-1.193-3.887-1.444-5.413c-0.233-1.531-0.328-2.741-0.359-3.571
			c-0.022-0.414-0.014-0.729-0.02-0.942C284.19,289.248,284.189,289.137,284.189,289.137z"/>
		<ellipse fill="#612F18" cx="299.35" cy="290.873" rx="10.52" ry="13.768"/>
		<path fill="#4F210F" d="M290.963,293.263c0-7.031,4.329-12.731,9.67-12.731c4.248,0,7.854,3.608,9.153,8.623
			c-0.646-6.793-5.07-12.05-10.436-12.05c-5.81,0-10.52,6.164-10.52,13.768c0,5.295,2.285,9.888,5.633,12.192
			C292.325,300.73,290.963,297.206,290.963,293.263z"/>
		<path fill="#2C0D00" d="M299.35,304.849c-5.916,0-10.728-6.269-10.728-13.976s4.812-13.976,10.728-13.976
			c5.915,0,10.727,6.269,10.727,13.976S305.265,304.849,299.35,304.849z M299.35,277.313c-5.687,0-10.313,6.083-10.313,13.561
			s4.626,13.561,10.313,13.561c5.686,0,10.313-6.083,10.313-13.561S305.036,277.313,299.35,277.313z"/>
		<ellipse fill="#3C2413" cx="298.51" cy="292.144" rx="5.448" ry="7.572"/>
		<path fill="#A35D2F" d="M290.054,289.62c0,0,0,2.973,1.659,3.25c0,0,0.415,0.484,1.452-2.42c1.037-2.904,3.734-9.613,10.51-5.878
			c0,0,1.348,0.831,2.213,3.043s0.933,3.388,0.933,4.08s1.694,1.088,1.763-0.821s-0.104-9.377-7.122-11.797
			s-10.061,4.564-10.994,7.433C290.469,286.509,290.123,288.445,290.054,289.62z"/>
		<path fill="#2C0D00" d="M282.301,280.847c0,0,0.07-0.288,0.26-0.765c0.092-0.24,0.215-0.527,0.368-0.85
			c0.161-0.317,0.331-0.688,0.557-1.064c0.112-0.19,0.229-0.387,0.35-0.592c0.131-0.198,0.267-0.402,0.407-0.613
			c0.275-0.425,0.614-0.837,0.951-1.275c0.174-0.214,0.363-0.422,0.552-0.635c0.19-0.212,0.375-0.434,0.588-0.632
			c0.413-0.409,0.831-0.828,1.291-1.202l0.684-0.564c0.234-0.18,0.48-0.343,0.717-0.512c0.468-0.348,0.965-0.639,1.453-0.907
			c0.245-0.131,0.475-0.278,0.719-0.388c0.245-0.108,0.484-0.214,0.718-0.318c0.234-0.099,0.461-0.195,0.681-0.288
			c0.225-0.082,0.448-0.147,0.66-0.213c0.425-0.128,0.813-0.241,1.162-0.322c0.354-0.068,0.665-0.111,0.919-0.148
			c0.508-0.073,0.799-0.094,0.799-0.094s-0.253,0.161-0.695,0.408c-0.222,0.122-0.487,0.274-0.796,0.428
			c-0.296,0.18-0.629,0.384-0.993,0.606c-0.18,0.11-0.374,0.21-0.565,0.334c-0.188,0.126-0.383,0.257-0.583,0.392
			c-0.201,0.13-0.407,0.264-0.618,0.4c-0.208,0.14-0.412,0.298-0.624,0.449c-0.212,0.151-0.427,0.304-0.645,0.459
			c-0.215,0.159-0.421,0.336-0.639,0.5c-0.215,0.167-0.432,0.336-0.65,0.505l-0.632,0.539c-0.437,0.342-0.832,0.733-1.246,1.092
			c-0.407,0.366-0.788,0.749-1.175,1.104c-0.362,0.378-0.743,0.718-1.071,1.073c-0.34,0.344-0.661,0.674-0.95,0.985
			c-0.591,0.614-1.074,1.144-1.416,1.518C282.497,280.632,282.301,280.847,282.301,280.847z"/>
		<path fill="#2C0D00" d="M313.728,274.408c0,0-0.073-0.101-0.211-0.289c-0.138-0.188-0.356-0.453-0.628-0.791
			c-0.551-0.671-1.388-1.59-2.489-2.576c-0.546-0.497-1.173-0.995-1.852-1.492c-0.679-0.499-1.443-0.95-2.241-1.392
			c-0.814-0.413-1.678-0.792-2.588-1.08c-0.909-0.284-1.855-0.509-2.819-0.597c-0.959-0.133-1.931-0.108-2.882-0.05
			c-0.474,0.053-0.944,0.117-1.408,0.18c-0.458,0.1-0.915,0.181-1.358,0.293c-0.439,0.129-0.871,0.256-1.293,0.38
			c-0.415,0.153-0.821,0.302-1.216,0.448c-0.393,0.152-0.759,0.34-1.125,0.496c-0.181,0.082-0.362,0.157-0.535,0.24
			c-0.17,0.09-0.337,0.178-0.5,0.264c-0.328,0.172-0.642,0.338-0.941,0.495c-0.291,0.172-0.567,0.336-0.827,0.49
			c-0.26,0.155-0.503,0.3-0.728,0.434c-0.223,0.138-0.417,0.28-0.598,0.401c-0.72,0.487-1.141,0.758-1.141,0.758
			s0.374-0.328,1.046-0.888c0.17-0.137,0.351-0.299,0.561-0.458c0.213-0.156,0.443-0.324,0.689-0.504
			c0.247-0.18,0.51-0.371,0.788-0.572c0.292-0.181,0.598-0.371,0.918-0.57c0.16-0.099,0.324-0.2,0.491-0.304
			c0.17-0.097,0.35-0.186,0.529-0.282c0.363-0.185,0.732-0.391,1.128-0.568c0.4-0.17,0.811-0.344,1.231-0.523
			c0.43-0.156,0.878-0.291,1.33-0.441c0.458-0.13,0.933-0.229,1.41-0.348c0.484-0.084,0.977-0.161,1.476-0.218
			c1.002-0.072,2.03-0.108,3.048,0.024c1.02,0.104,2.019,0.351,2.975,0.661c0.959,0.309,1.848,0.75,2.687,1.201
			c0.824,0.479,1.589,0.992,2.265,1.54c0.68,0.541,1.286,1.096,1.808,1.642c0.533,0.535,0.976,1.068,1.355,1.546
			c0.379,0.48,0.687,0.914,0.934,1.275C313.505,273.96,313.728,274.408,313.728,274.408z"/>
		<ellipse fill="#E8EAE7" cx="304.265" cy="286.271" rx="3.632" ry="5.424"/>
		<path opacity="0.2" fill="#FCEEE2" d="M328.142,274.365c0,0,2.006-12.047-7.941-13.272c-9.948-1.225-36.226-1.523-38.293-1.305
			c-2.067,0.218-9.9-0.218-11.096,11.096c-1.197,11.314-0.435,26.652,0.761,29.698c1.197,3.046,3.264,10.443,14.142,12.184
			c0,0,19.146,1.741,26.87-2.176s9.464-6.854,10.879-12.619C324.878,292.205,328.142,274.365,328.142,274.365z"/>
		<path fill="#E06D3F" d="M271.571,304.556c1.257,2.489,3.193,9.957,16.331,10.51c13.138,0.553,26.413-2.074,26.413-2.074
			s12.031-2.766,14.106-18.531c2.074-15.765,2.489-18.807,2.489-18.807s4.01-17.425-16.042-17.978
			c-20.052-0.553-34.711,0.691-34.711,0.691s-10.787-1.659-11.063,16.595C268.818,293.216,270.314,302.066,271.571,304.556z
			 M272.137,271.193c1.141-10.787,8.609-10.372,10.579-10.579s27.024,0.077,36.509,1.245c9.484,1.168,7.571,12.654,7.571,12.654
			s-3.112,17.01-4.46,22.507c-1.348,5.497-3.008,8.297-10.372,12.031c-7.364,3.734-25.618,2.074-25.618,2.074
			c-10.372-1.659-12.342-8.712-13.483-11.616C271.722,296.604,270.996,281.98,272.137,271.193z"/>
		<path fill="#0D0D0D" d="M291.647,315.557C291.647,315.557,291.648,315.557,291.647,315.557c-1.286,0-2.551-0.026-3.763-0.077
			c-12.118-0.51-14.941-6.852-16.297-9.9c-0.141-0.318-0.267-0.601-0.387-0.837c-1.395-2.762-2.79-12.038-2.521-29.788
			c0.24-15.813,8.319-17.042,10.79-17.042c0.35,0,0.596,0.025,0.698,0.037c0.743-0.061,10.448-0.831,24.35-0.831
			c3.462,0,6.948,0.048,10.362,0.142c6.443,0.178,11.125,2.096,13.915,5.702c4.162,5.379,2.588,12.484,2.52,12.784l0,0
			c0.002,0-0.434,3.202-2.482,18.768c-2.088,15.867-14.301,18.853-14.424,18.881C314.287,313.42,303.352,315.557,291.647,315.557z
			 M279.469,258.742c-2.279,0-9.732,1.17-9.96,16.226c-0.267,17.618,1.143,26.849,2.432,29.401c0.125,0.247,0.256,0.543,0.404,0.874
			c1.289,2.895,3.97,8.92,15.574,9.408c1.2,0.051,2.454,0.076,3.728,0.076c11.622,0,22.48-2.122,22.588-2.143
			c0.105-0.024,11.765-2.902,13.775-18.178c2.051-15.586,2.485-18.779,2.489-18.809c0.023-0.107,1.558-7.069-2.364-12.132
			c-2.631-3.396-7.098-5.204-13.277-5.375c-3.406-0.094-6.885-0.142-10.339-0.142c-14.365,0-24.227,0.823-24.325,0.831
			c-0.032,0.004-0.066,0.002-0.098-0.003C280.093,258.777,279.859,258.742,279.469,258.742z M295.437,311.907
			c-5.01,0-9.087-0.365-9.128-0.369c-9.958-1.592-12.416-8.123-13.597-11.262c-0.083-0.221-0.161-0.427-0.235-0.616
			c-1.242-3.16-1.852-18.115-0.753-28.51c1.088-10.29,7.858-10.738,10.407-10.907c0.209-0.014,0.392-0.026,0.542-0.041
			c0.508-0.053,2.218-0.065,3.564-0.065c7.018,0,25.079,0.33,33.038,1.31c2.597,0.32,4.613,1.418,5.993,3.266
			c2.894,3.874,1.977,9.625,1.937,9.867c-0.032,0.177-3.13,17.092-4.466,22.538c-1.37,5.585-3.144,8.528-10.587,12.302
			C308.099,311.475,300.825,311.907,295.437,311.907z M286.237,260.966c-1.847,0-3.114,0.022-3.477,0.06
			c-0.158,0.017-0.352,0.03-0.574,0.045c-2.58,0.171-8.621,0.57-9.636,10.166c-1.132,10.7-0.389,25.348,0.699,28.12
			c0.076,0.192,0.155,0.402,0.239,0.627c1.213,3.222,3.469,9.218,12.924,10.731c0.012,0,4.055,0.362,9.025,0.362
			c5.298,0,12.433-0.416,16.34-2.397c7.05-3.575,8.79-6.189,10.156-11.76c1.33-5.422,4.424-22.313,4.455-22.482
			c0.008-0.049,0.896-5.644-1.786-9.231c-1.239-1.657-3.066-2.646-5.428-2.936C311.693,261.349,294.03,260.966,286.237,260.966z"/>
		<path fill="#EF9354" d="M271.573,300.167c1.197,3.046,3.264,10.443,14.142,12.184c0,0,19.146,1.741,26.87-2.176
			s9.464-6.853,10.879-12.619c1.414-5.766,4.678-23.607,4.678-23.607s2.006-12.047-7.941-13.272
			c-9.948-1.225-36.226-1.523-38.293-1.305c-2.067,0.218-9.9-0.218-11.096,11.096S270.376,297.121,271.573,300.167z
			 M272.863,299.508c-1.141-2.904-1.867-17.528-0.726-28.315s8.609-10.372,10.579-10.579s27.024,0.077,36.509,1.245
			c9.484,1.168,7.571,12.654,7.571,12.654s-3.112,17.01-4.46,22.507c-1.348,5.497-3.008,8.297-10.372,12.031
			c-7.364,3.734-25.618,2.074-25.618,2.074C275.975,309.465,274.004,302.412,272.863,299.508z"/>
	</g>
</g>
</svg>
